%YAML 1.1
%TAG !u! tag:unity3d.com,2011:
--- !u!114 &11400000
MonoBehaviour:
  m_ObjectHideFlags: 0
  m_CorrespondingSourceObject: {fileID: 0}
  m_PrefabInstance: {fileID: 0}
  m_PrefabAsset: {fileID: 0}
  m_GameObject: {fileID: 0}
  m_Enabled: 1
  m_EditorHideFlags: 0
  m_Script: {fileID: 11500000, guid: b6c88e76926c9a64b92874e628e03a83, type: 3}
  m_Name: UI
  m_EditorClassIdentifier: 
  m_Texture: {fileID: 2800000, guid: 499a4c32e462042ff8d4d86dcd432434, type: 3}
  m_Padding: 1
  m_MaxSize: 4096
  m_PackingMethod: 0
  m_DefaultPivot: 0
  m_DefaultCustomPivot: {x: 0.5, y: 0.5}
  m_Sprites:
  - source: {fileID: 21300000, guid: 730df53918d614993adc254aa1247c1e, type: 3}
    targetSprite: {fileID: 5704914090667355640, guid: 499a4c32e462042ff8d4d86dcd432434,
      type: 3}
  - source: {fileID: 21300000, guid: c1938a2259d954709aa918c217d5d415, type: 3}
    targetSprite: {fileID: 4196021860898411284, guid: 499a4c32e462042ff8d4d86dcd432434,
      type: 3}
  - source: {fileID: 21300000, guid: 0a209ebe6e39e4194841c1dae6baf6bb, type: 3}
    targetSprite: {fileID: -4057594181227683366, guid: 499a4c32e462042ff8d4d86dcd432434,
      type: 3}
  - source: {fileID: 21300000, guid: 9c6ea515e6d624316b8844c6a16d06ea, type: 3}
    targetSprite: {fileID: -174701075010476169, guid: 499a4c32e462042ff8d4d86dcd432434,
      type: 3}
  - source: {fileID: 21300000, guid: fbd46bb573b884bfd9a48ec88398c40b, type: 3}
    targetSprite: {fileID: -5378565890894929589, guid: 499a4c32e462042ff8d4d86dcd432434,
      type: 3}
  - source: {fileID: 21300000, guid: ecdc696fd41b34ad2ab048a3edefc403, type: 3}
    targetSprite: {fileID: -6936388840650651535, guid: 499a4c32e462042ff8d4d86dcd432434,
      type: 3}
  - source: {fileID: 21300000, guid: 23f13fc04860d4d82923d5ab3dac5391, type: 3}
    targetSprite: {fileID: -2968075771776684111, guid: 499a4c32e462042ff8d4d86dcd432434,
      type: 3}
  - source: {fileID: 21300000, guid: 6d192cfdd1d434399a400761b93d43b1, type: 3}
    targetSprite: {fileID: 6592788455472134656, guid: 499a4c32e462042ff8d4d86dcd432434,
      type: 3}
  - source: {fileID: 21300000, guid: f1172d37122e94624803013d168f0663, type: 3}
    targetSprite: {fileID: 4201631560075406789, guid: 499a4c32e462042ff8d4d86dcd432434,
      type: 3}
  - source: {fileID: 21300000, guid: aca9ac8d25f564d6383ca555d6e04741, type: 3}
    targetSprite: {fileID: -6534791036327541963, guid: 499a4c32e462042ff8d4d86dcd432434,
      type: 3}
  - source: {fileID: 21300000, guid: f0c9c0beb0add4b5bb6609b2165b2c08, type: 3}
    targetSprite: {fileID: -701293674248062999, guid: 499a4c32e462042ff8d4d86dcd432434,
      type: 3}
  - source: {fileID: 21300000, guid: 82bb5dcb404bb412c96fc912dbfcbb8b, type: 3}
    targetSprite: {fileID: -1132048951496305783, guid: 499a4c32e462042ff8d4d86dcd432434,
      type: 3}
  - source: {fileID: 21300000, guid: 9d50cca3dec85494e8392cbe792747d8, type: 3}
    targetSprite: {fileID: -1515027179663032504, guid: 499a4c32e462042ff8d4d86dcd432434,
      type: 3}
  - source: {fileID: 21300000, guid: f4986a4de3a7f478ea6dd221f143fadf, type: 3}
    targetSprite: {fileID: 5874472646799243556, guid: 499a4c32e462042ff8d4d86dcd432434,
      type: 3}
  - source: {fileID: 21300000, guid: eae880dec31124e438629246dcd7ca39, type: 3}
    targetSprite: {fileID: -9135198013508820624, guid: 499a4c32e462042ff8d4d86dcd432434,
      type: 3}
  - source: {fileID: 21300000, guid: 00349422d1c6b4edeb4de42e6a31916f, type: 3}
    targetSprite: {fileID: -2022027796286879919, guid: 499a4c32e462042ff8d4d86dcd432434,
      type: 3}
  - source: {fileID: 21300000, guid: 70988101de67c4316b4d8204d9f00741, type: 3}
    targetSprite: {fileID: 9197553436591836629, guid: 499a4c32e462042ff8d4d86dcd432434,
      type: 3}
  - source: {fileID: 21300000, guid: 2391796a4587b49cd93cbbaf78f56916, type: 3}
    targetSprite: {fileID: -8346526620104574096, guid: 499a4c32e462042ff8d4d86dcd432434,
      type: 3}
  - source: {fileID: 21300000, guid: 5a0a8e2cac2b14d618dd1f94cc8cc1bb, type: 3}
    targetSprite: {fileID: -6262105182943536569, guid: 499a4c32e462042ff8d4d86dcd432434,
      type: 3}
  - source: {fileID: 21300000, guid: 23e9249b40aaf45dab13f23f6f7d21e3, type: 3}
    targetSprite: {fileID: 7712164264572053102, guid: 499a4c32e462042ff8d4d86dcd432434,
      type: 3}
  - source: {fileID: 21300000, guid: b619a5316357e4f409b0780c768641f1, type: 3}
    targetSprite: {fileID: 5320338508623856204, guid: 499a4c32e462042ff8d4d86dcd432434,
      type: 3}
  - source: {fileID: 21300000, guid: 310727304271746fc992ca15dc2b46b4, type: 3}
    targetSprite: {fileID: 2974963564147257538, guid: 499a4c32e462042ff8d4d86dcd432434,
      type: 3}
  - source: {fileID: 21300000, guid: b0be7aeb4e6884a409d2165ec8b5c63f, type: 3}
    targetSprite: {fileID: -2660444807284943556, guid: 499a4c32e462042ff8d4d86dcd432434,
      type: 3}
  - source: {fileID: 21300000, guid: 7eea87547d0a24f89863a741da0c3557, type: 3}
    targetSprite: {fileID: 9181476069534134362, guid: 499a4c32e462042ff8d4d86dcd432434,
      type: 3}
  - source: {fileID: 21300000, guid: 3b9a9e0b92b1e4c10bc9861fedb99cea, type: 3}
    targetSprite: {fileID: 6954266623894019526, guid: 499a4c32e462042ff8d4d86dcd432434,
      type: 3}
  - source: {fileID: 21300000, guid: 9ee5142226f144b6887abb53b7572d4a, type: 3}
    targetSprite: {fileID: -7811580677752483488, guid: 499a4c32e462042ff8d4d86dcd432434,
      type: 3}
  - source: {fileID: 21300000, guid: 2a7cf47cfe8164766bce6ed0f0798121, type: 3}
    targetSprite: {fileID: -3401710905487648318, guid: 499a4c32e462042ff8d4d86dcd432434,
      type: 3}
  - source: {fileID: 21300000, guid: 47f3a8256d3ee4aeba8d2c0d33c5dfc7, type: 3}
    targetSprite: {fileID: 7842143193682448633, guid: 499a4c32e462042ff8d4d86dcd432434,
      type: 3}
  - source: {fileID: 21300000, guid: 3f0e927d40a334f2b8fc7bc3b1d35708, type: 3}
    targetSprite: {fileID: -745274183437771550, guid: 499a4c32e462042ff8d4d86dcd432434,
      type: 3}
  - source: {fileID: 21300000, guid: ba70c50336dad4f72ae425bd67532924, type: 3}
    targetSprite: {fileID: -3594111607912776608, guid: 499a4c32e462042ff8d4d86dcd432434,
      type: 3}
  - source: {fileID: 21300000, guid: a5742ea895b904e8ab144e9e06789496, type: 3}
    targetSprite: {fileID: 2113216441482440155, guid: 499a4c32e462042ff8d4d86dcd432434,
      type: 3}
  - source: {fileID: 21300000, guid: af6cfa0e35a2143e8b75aaa0f8e32972, type: 3}
    targetSprite: {fileID: -4188921856932490234, guid: 499a4c32e462042ff8d4d86dcd432434,
      type: 3}
  - source: {fileID: 21300000, guid: cf9b02a25fd1548cf8d420ceba7a85d7, type: 3}
    targetSprite: {fileID: -8538363747314163897, guid: 499a4c32e462042ff8d4d86dcd432434,
      type: 3}
  - source: {fileID: 21300000, guid: 437ca11ed352a431cab53a5be5349a1a, type: 3}
    targetSprite: {fileID: 6686378322286715571, guid: 499a4c32e462042ff8d4d86dcd432434,
      type: 3}
  - source: {fileID: 21300000, guid: 3478786e9e49349c094942788c1e42ee, type: 3}
    targetSprite: {fileID: 8480932458673659852, guid: 499a4c32e462042ff8d4d86dcd432434,
      type: 3}
  - source: {fileID: 21300000, guid: 448778966acfd45d681279892e72a336, type: 3}
    targetSprite: {fileID: 8963080929757736457, guid: 499a4c32e462042ff8d4d86dcd432434,
      type: 3}
  - source: {fileID: 21300000, guid: 00c212711405f40b08c2c0611675c410, type: 3}
    targetSprite: {fileID: -3622854678245479281, guid: 499a4c32e462042ff8d4d86dcd432434,
      type: 3}
  - source: {fileID: 21300000, guid: 8c42c970650394a96a0d8c03347d05ad, type: 3}
    targetSprite: {fileID: -6336180735369342948, guid: 499a4c32e462042ff8d4d86dcd432434,
      type: 3}
  - source: {fileID: 21300000, guid: 2c10aa137ae74482ca36deeda177d087, type: 3}
    targetSprite: {fileID: 8831612822649272761, guid: 499a4c32e462042ff8d4d86dcd432434,
      type: 3}
  - source: {fileID: 21300000, guid: e6fd5354dc485417d86ca8653d357ff2, type: 3}
    targetSprite: {fileID: -6089970003976323678, guid: 499a4c32e462042ff8d4d86dcd432434,
      type: 3}
  - source: {fileID: 21300000, guid: 6ad6800273b9a4bdca5a2e599b123c7f, type: 3}
    targetSprite: {fileID: 6393474130657423038, guid: 499a4c32e462042ff8d4d86dcd432434,
      type: 3}
  - source: {fileID: 21300000, guid: d9d8f95d701024c6d8ba388e5cce2b51, type: 3}
    targetSprite: {fileID: -7829861383975469610, guid: 499a4c32e462042ff8d4d86dcd432434,
      type: 3}
  - source: {fileID: 21300000, guid: f47f84c0646de4f3fbb12f1f91cbcd22, type: 3}
    targetSprite: {fileID: 43078771173712232, guid: 499a4c32e462042ff8d4d86dcd432434,
      type: 3}
  - source: {fileID: 21300000, guid: 5d84ae28e69944cb18b6633c17daf8b2, type: 3}
    targetSprite: {fileID: 7677014025338835308, guid: 499a4c32e462042ff8d4d86dcd432434,
      type: 3}
  - source: {fileID: 21300000, guid: 03acbb35f7467497aa312247558b3796, type: 3}
    targetSprite: {fileID: -4367195589859831694, guid: 499a4c32e462042ff8d4d86dcd432434,
      type: 3}
  - source: {fileID: 21300000, guid: d3141026a804549538c2fcc892ad4590, type: 3}
    targetSprite: {fileID: -8397492697058039795, guid: 499a4c32e462042ff8d4d86dcd432434,
      type: 3}
  - source: {fileID: 21300000, guid: 8914731c3b8bd48c58ae25e6f9255a49, type: 3}
    targetSprite: {fileID: -4937799242134460900, guid: 499a4c32e462042ff8d4d86dcd432434,
      type: 3}
  - source: {fileID: 21300000, guid: 3891d6254286f41628b77559fbba4720, type: 3}
    targetSprite: {fileID: -5683019630868176096, guid: 499a4c32e462042ff8d4d86dcd432434,
      type: 3}
  - source: {fileID: 21300000, guid: 5c966890b586c4cdabeb18d73e84f47c, type: 3}
    targetSprite: {fileID: 3802091392676919337, guid: 499a4c32e462042ff8d4d86dcd432434,
      type: 3}
  - source: {fileID: 21300000, guid: db4b123a9a6614b7d9b4a5f19bad2183, type: 3}
    targetSprite: {fileID: -5253888416190519109, guid: 499a4c32e462042ff8d4d86dcd432434,
      type: 3}
  - source: {fileID: 21300000, guid: c2ff87e6ac0224d0492ea7d903f4237c, type: 3}
    targetSprite: {fileID: 7860760890727615186, guid: 499a4c32e462042ff8d4d86dcd432434,
      type: 3}
  - source: {fileID: 21300000, guid: 3f0d4e6858b534198beedf41367687b5, type: 3}
    targetSprite: {fileID: -408081667269703363, guid: 499a4c32e462042ff8d4d86dcd432434,
      type: 3}
  - source: {fileID: 21300000, guid: ca99ff48974114d5abf9938afe296074, type: 3}
    targetSprite: {fileID: -416437721551457585, guid: 499a4c32e462042ff8d4d86dcd432434,
      type: 3}
  - source: {fileID: 21300000, guid: f5edeb467c3de4dc9894dda3f6823599, type: 3}
    targetSprite: {fileID: -3750996804995902367, guid: 499a4c32e462042ff8d4d86dcd432434,
      type: 3}
  - source: {fileID: 21300000, guid: b814c122c463d48729b10dbfd402162e, type: 3}
    targetSprite: {fileID: 717208240445627629, guid: 499a4c32e462042ff8d4d86dcd432434,
      type: 3}
  - source: {fileID: 21300000, guid: d9a74ad14b8304f8d9044c85b3f5220f, type: 3}
    targetSprite: {fileID: 2140191300970664866, guid: 499a4c32e462042ff8d4d86dcd432434,
      type: 3}
  - source: {fileID: 21300000, guid: b2852cb40f49a4df288b4b84e8b8ad0c, type: 3}
    targetSprite: {fileID: 498256817836070214, guid: 499a4c32e462042ff8d4d86dcd432434,
      type: 3}
  - source: {fileID: 21300000, guid: 248ee33513caa491cb1f97d46f33bff7, type: 3}
    targetSprite: {fileID: 4475057395963881182, guid: 499a4c32e462042ff8d4d86dcd432434,
      type: 3}
  - source: {fileID: 21300000, guid: c191007a43bd348eaa39f158b0f9386d, type: 3}
    targetSprite: {fileID: 4269535944786631012, guid: 499a4c32e462042ff8d4d86dcd432434,
      type: 3}
  - source: {fileID: 21300000, guid: bdf8204c0f6494e8fa818f3ae769532d, type: 3}
    targetSprite: {fileID: 6895231934147306449, guid: 499a4c32e462042ff8d4d86dcd432434,
      type: 3}
  - source: {fileID: 21300000, guid: 7254134327b5640a6a91f2e6f8e8ec32, type: 3}
    targetSprite: {fileID: -838583892764350743, guid: 499a4c32e462042ff8d4d86dcd432434,
      type: 3}
  - source: {fileID: 21300000, guid: 42959f0a10ed149eb90ae9e3e3b63620, type: 3}
    targetSprite: {fileID: -3434500532294793229, guid: 499a4c32e462042ff8d4d86dcd432434,
      type: 3}
  - source: {fileID: 21300000, guid: 3b9f2c996297446be87479ec471f38e3, type: 3}
    targetSprite: {fileID: 3254678676506372535, guid: 499a4c32e462042ff8d4d86dcd432434,
      type: 3}
  - source: {fileID: 21300000, guid: d7294bf02b23149339ae7fd4c72172b3, type: 3}
    targetSprite: {fileID: 5172682845906046292, guid: 499a4c32e462042ff8d4d86dcd432434,
      type: 3}
  - source: {fileID: 21300000, guid: 45425cba132614d69b7b6bf649b0d944, type: 3}
    targetSprite: {fileID: -5120674082757027417, guid: 499a4c32e462042ff8d4d86dcd432434,
      type: 3}
  - source: {fileID: 21300000, guid: 2ec6fc4dd780742aa8a3bc8e3175aff3, type: 3}
    targetSprite: {fileID: -9115400216457242305, guid: 499a4c32e462042ff8d4d86dcd432434,
      type: 3}
  - source: {fileID: 21300000, guid: 36354d53589054bb7be8cfdad6661dd0, type: 3}
    targetSprite: {fileID: -6707754332129007671, guid: 499a4c32e462042ff8d4d86dcd432434,
      type: 3}
  - source: {fileID: 21300000, guid: 7e64a4485ffa2436e87feb2222cb723e, type: 3}
    targetSprite: {fileID: -117011360594597504, guid: 499a4c32e462042ff8d4d86dcd432434,
      type: 3}
  - source: {fileID: 21300000, guid: 87e261073a8f745c294a32b8e7002797, type: 3}
    targetSprite: {fileID: 7948155876763511479, guid: 499a4c32e462042ff8d4d86dcd432434,
      type: 3}
  - source: {fileID: 21300000, guid: 10282758513a8484b892c1023c685494, type: 3}
    targetSprite: {fileID: 625991250370770715, guid: 499a4c32e462042ff8d4d86dcd432434,
      type: 3}
  - source: {fileID: 21300000, guid: 56d37240e54e54efd81c454972c5b05f, type: 3}
    targetSprite: {fileID: -641009911785384536, guid: 499a4c32e462042ff8d4d86dcd432434,
      type: 3}
  - source: {fileID: 21300000, guid: 32221a15f15f6447ab2e2858fa4e349f, type: 3}
    targetSprite: {fileID: 6329012689007891516, guid: 499a4c32e462042ff8d4d86dcd432434,
      type: 3}
  - source: {fileID: 21300000, guid: d3693e2ba560e4be6b534cfa4509cdd7, type: 3}
    targetSprite: {fileID: 6658688663035930296, guid: 499a4c32e462042ff8d4d86dcd432434,
      type: 3}
  - source: {fileID: 21300000, guid: 81c01e93fead14be4a45285ff245df4b, type: 3}
    targetSprite: {fileID: 6185870537405371192, guid: 499a4c32e462042ff8d4d86dcd432434,
      type: 3}
  - source: {fileID: 21300000, guid: 2a84ca8fc0f6c41bdabdc3af45333997, type: 3}
    targetSprite: {fileID: -3538007777316941585, guid: 499a4c32e462042ff8d4d86dcd432434,
      type: 3}
  - source: {fileID: 21300000, guid: 84dcb1cda105e4f3cbbc9b259f085c20, type: 3}
    targetSprite: {fileID: -794610694286494261, guid: 499a4c32e462042ff8d4d86dcd432434,
      type: 3}
  - source: {fileID: 21300000, guid: 95e98dbb42f2c4434af32fd4741946b8, type: 3}
    targetSprite: {fileID: -5297922346919954563, guid: 499a4c32e462042ff8d4d86dcd432434,
      type: 3}
  - source: {fileID: 21300000, guid: 3c82047e79e2641329066d384d316015, type: 3}
    targetSprite: {fileID: -6243898679525054088, guid: 499a4c32e462042ff8d4d86dcd432434,
      type: 3}
  - source: {fileID: 21300000, guid: 1f4696906f0054dd99a7dad2c56e4c7c, type: 3}
    targetSprite: {fileID: -1331866314667983226, guid: 499a4c32e462042ff8d4d86dcd432434,
      type: 3}
  - source: {fileID: 21300000, guid: e440aabd7b4c44e458b75e36cb277028, type: 3}
    targetSprite: {fileID: 4904672326328238175, guid: 499a4c32e462042ff8d4d86dcd432434,
      type: 3}
  - source: {fileID: 21300000, guid: 01b123ebc48cb4826a1665980b15e6ab, type: 3}
    targetSprite: {fileID: -3132238218208844635, guid: 499a4c32e462042ff8d4d86dcd432434,
      type: 3}
  - source: {fileID: 21300000, guid: 87b0fb9294d1f40deac31a9e95966f06, type: 3}
    targetSprite: {fileID: -209143576518600603, guid: 499a4c32e462042ff8d4d86dcd432434,
      type: 3}
  - source: {fileID: 21300000, guid: c856f1fb854184a51bb56822873a0f2c, type: 3}
    targetSprite: {fileID: -8431994761809995962, guid: 499a4c32e462042ff8d4d86dcd432434,
      type: 3}
  - source: {fileID: 21300000, guid: d9ea0267a47d14656a2d19929456b20a, type: 3}
    targetSprite: {fileID: 6311199445447666015, guid: 499a4c32e462042ff8d4d86dcd432434,
      type: 3}
  - source: {fileID: 21300000, guid: a3ff3bd58efeb413cbe0ca15ef83d45c, type: 3}
    targetSprite: {fileID: -1842015560625727198, guid: 499a4c32e462042ff8d4d86dcd432434,
      type: 3}
  - source: {fileID: 21300000, guid: 6c3bb3680987a46a486ae923067563a9, type: 3}
    targetSprite: {fileID: 6559362376442442836, guid: 499a4c32e462042ff8d4d86dcd432434,
      type: 3}
  m_PendingActions: []
