
spin.png
size: 540,296
format: RGBA8888
filter: Linear,Linear
repeat: none
SPIN
  rotate: true
  xy: 472, 81
  size: 94, 50
  orig: 96, 52
  offset: 1, 1
  index: -1
anniu
  rotate: false
  xy: 112, 13
  size: 60, 59
  orig: 62, 61
  offset: 1, 1
  index: -1
biao
  rotate: true
  xy: 112, 74
  size: 55, 62
  orig: 57, 64
  offset: 1, 1
  index: -1
di
  rotate: false
  xy: 176, 102
  size: 164, 52
  orig: 166, 54
  offset: 1, 1
  index: -1
glow
  rotate: false
  xy: 318, 166
  size: 128, 128
  orig: 128, 128
  offset: 0, 0
  index: -1
glow_2
  rotate: false
  xy: 262, 44
  size: 55, 56
  orig: 64, 64
  offset: 5, 4
  index: -1
guangci
  rotate: false
  xy: 2, 131
  size: 172, 163
  orig: 177, 165
  offset: 1, 1
  index: -1
guangzhu
  rotate: false
  xy: 342, 36
  size: 128, 128
  orig: 128, 128
  offset: 0, 0
  index: -1
huanrao_00000
  rotate: false
  xy: 176, 156
  size: 140, 138
  orig: 184, 173
  offset: 21, 20
  index: -1
pan
  rotate: false
  xy: 176, 17
  size: 84, 83
  orig: 86, 85
  offset: 1, 1
  index: -1
waideng
  rotate: true
  xy: 2, 2
  size: 127, 108
  orig: 147, 147
  offset: 1, 19
  index: -1
xingguang_2
  rotate: false
  xy: 448, 177
  size: 88, 117
  orig: 128, 128
  offset: 20, 6
  index: -1
