{
"skeleton": { "hash": "h6NfacLCsm87w9kP9eIDbnU2MAo", "spine": "3.6.53", "width": 365.04, "height": 398.53 },
"bones": [
	{ "name": "root" },
	{ "name": "Ye_0", "parent": "root", "x": 92.99, "y": 43.17 },
	{ "name": "Ye_1", "parent": "root", "x": 92.99, "y": 43.17 },
	{ "name": "Ye_2", "parent": "root", "x": 92.99, "y": 43.17 },
	{ "name": "Ye_3", "parent": "root", "x": 92.99, "y": 43.17 },
	{ "name": "Ye_4", "parent": "root", "x": 92.99, "y": 43.17 },
	{ "name": "bone", "parent": "root", "length": 23.91, "rotation": 106.43, "x": 0.86, "y": 89.92 },
	{ "name": "hua1", "parent": "root", "x": 3.94, "y": -45.27 },
	{ "name": "hua2", "parent": "root", "x": -42.14, "y": -30.87 },
	{ "name": "hua3", "parent": "root", "x": 20.98, "y": 29.62 },
	{ "name": "hua5", "parent": "root", "x": 78.2, "y": -3.84 },
	{ "name": "hua7", "parent": "root", "x": -99.52, "y": -3.62 },
	{ "name": "hua8", "parent": "root", "x": -56.54, "y": 45.41 },
	{ "name": "hua9", "parent": "hua5", "length": 25.06, "rotation": 69.15, "x": 1.5, "y": 6.45 },
	{ "name": "hua10", "parent": "root", "x": -66.89, "y": 69.99 },
	{ "name": "hua11", "parent": "root", "x": -84.22, "y": 103.37 },
	{ "name": "hua12", "parent": "hua5", "length": 19.25, "rotation": 10.01, "x": 8.19, "y": -4.48 },
	{ "name": "hua13", "parent": "root", "x": 107.6, "y": 55.74 },
	{ "name": "hua14", "parent": "root", "x": 14.65, "y": 77.05 },
	{ "name": "hua15", "parent": "hua5", "length": 10.33, "rotation": 122.66, "x": -9.65, "y": -8.94 },
	{ "name": "hua16", "parent": "root", "x": 35.83, "y": 116.85 },
	{ "name": "hua17", "parent": "root", "x": -18.1, "y": 134.19 },
	{ "name": "hua18", "parent": "root", "x": 9.51, "y": 146.39 },
	{ "name": "hua19", "parent": "hua14", "length": 21.45, "rotation": 56.75, "x": 16.5, "y": 4.05 },
	{ "name": "hua20", "parent": "hua14", "length": 20.42, "rotation": 83.39, "x": 2.09, "y": 14.93 },
	{ "name": "hua21", "parent": "hua14", "length": 13.87, "rotation": 175.14, "x": -16.43, "y": 3.47 },
	{ "name": "hua22", "parent": "hua14", "length": 14.43, "rotation": -123.37, "x": -5.85, "y": -5.94 },
	{ "name": "hua23", "parent": "hua5", "length": 19.51, "rotation": 100.54, "x": -10.1, "y": 7.12 },
	{ "name": "hua24", "parent": "root", "x": 68.28, "y": 85.23 },
	{ "name": "hua_0", "parent": "root", "x": -72.13, "y": 77.33, "scaleX": 0.8, "scaleY": 0.8 },
	{ "name": "hua_1", "parent": "root", "x": -72.13, "y": 77.33, "scaleX": 0.8, "scaleY": 0.8 },
	{ "name": "hua_2", "parent": "root", "x": -72.13, "y": 77.33, "scaleX": 0.8, "scaleY": 0.8 },
	{ "name": "hua_3", "parent": "root", "x": -72.13, "y": 77.33, "scaleX": 0.8, "scaleY": 0.8 },
	{ "name": "hua_4", "parent": "root", "x": -72.13, "y": 77.33, "scaleX": 0.8, "scaleY": 0.8 },
	{ "name": "hua_5", "parent": "root", "x": 56.63, "y": 77.33, "scaleX": 0.8, "scaleY": 0.8 },
	{ "name": "hua_6", "parent": "root", "x": 56.63, "y": 77.33, "scaleX": 0.8, "scaleY": 0.8 },
	{ "name": "hua_7", "parent": "root", "x": 56.63, "y": 77.33, "scaleX": 0.8, "scaleY": 0.8 },
	{ "name": "tuan", "parent": "root", "x": 10.67, "y": -36.98 }
],
"slots": [
	{ "name": "keng", "bone": "root", "attachment": "keng" },
	{ "name": "tuan", "bone": "tuan", "attachment": "tuan" },
	{ "name": "huaguduo", "bone": "tuan", "attachment": "huaguduo" },
	{ "name": "yingying", "bone": "tuan", "attachment": "yingying" },
	{ "name": "hua18", "bone": "hua18", "attachment": "hua18" },
	{ "name": "hua17", "bone": "hua17", "attachment": "hua17" },
	{ "name": "hua16", "bone": "hua16", "attachment": "hua16" },
	{ "name": "hua15", "bone": "hua24", "attachment": "hua15" },
	{ "name": "hua14", "bone": "hua22", "attachment": "hua14" },
	{ "name": "hua13", "bone": "hua13", "attachment": "hua13" },
	{ "name": "hua12", "bone": "root", "attachment": "hua12" },
	{ "name": "hua11", "bone": "hua11", "attachment": "hua11" },
	{ "name": "hua10", "bone": "hua10", "attachment": "hua10" },
	{ "name": "hua9", "bone": "root", "attachment": "hua9" },
	{ "name": "hua7", "bone": "hua7", "attachment": "hua7" },
	{ "name": "hua6", "bone": "root", "attachment": "hua6" },
	{ "name": "hua5", "bone": "hua23", "attachment": "hua5" },
	{ "name": "hua3", "bone": "hua3", "attachment": "hua3" },
	{ "name": "hua2", "bone": "hua2", "attachment": "hua2" },
	{ "name": "hua1", "bone": "hua1", "attachment": "hua1" },
	{ "name": "hua8", "bone": "hua8", "attachment": "hua8" },
	{ "name": "hua4", "bone": "root", "attachment": "hua4" },
	{ "name": "Ye_0", "bone": "Ye_0", "attachment": "Ye_0" },
	{ "name": "Ye_2", "bone": "Ye_2", "attachment": "Ye_0" },
	{ "name": "Ye_1", "bone": "Ye_1", "attachment": "Ye_0" },
	{ "name": "Ye_3", "bone": "Ye_3", "attachment": "Ye_0" },
	{ "name": "Ye_4", "bone": "Ye_4", "attachment": "Ye_0" },
	{ "name": "hua_0", "bone": "hua_0", "attachment": "hua_3", "blend": "additive" },
	{ "name": "hua_1", "bone": "hua_1", "attachment": "hua_3", "blend": "additive" },
	{ "name": "hua_2", "bone": "hua_2", "attachment": "hua_3", "blend": "additive" },
	{ "name": "hua_3", "bone": "hua_3", "attachment": "hua_3", "blend": "additive" },
	{ "name": "hua_4", "bone": "hua_4", "attachment": "hua_3", "blend": "additive" },
	{ "name": "hua_5", "bone": "hua_5", "attachment": "hua_3", "blend": "additive" },
	{ "name": "hua_6", "bone": "hua_6", "attachment": "hua_3", "blend": "additive" },
	{ "name": "hua_7", "bone": "hua_7", "attachment": "hua_3", "blend": "additive" },
	{ "name": "glow01_w", "bone": "root", "attachment": "glow01_w", "blend": "additive" },
	{ "name": "glow01_w3", "bone": "root", "attachment": "glow01_w", "blend": "additive" },
	{ "name": "glow01_w4", "bone": "root", "attachment": "glow01_w", "blend": "additive" },
	{ "name": "glow01_w5", "bone": "root", "attachment": "glow01_w", "blend": "additive" },
	{ "name": "glow01_w6", "bone": "root", "attachment": "glow01_w", "blend": "additive" },
	{ "name": "glow01_w7", "bone": "root", "attachment": "glow01_w", "blend": "additive" },
	{ "name": "glow01_w8", "bone": "root", "attachment": "glow01_w", "blend": "additive" },
	{ "name": "glow01_w9", "bone": "root", "attachment": "glow01_w", "blend": "additive" },
	{ "name": "glow01_w2", "bone": "root", "attachment": "glow01_w", "blend": "additive" },
	{ "name": "dot002_g", "bone": "root", "attachment": "dot002_g", "blend": "additive" },
	{ "name": "dot002_g5", "bone": "root", "attachment": "dot002_g", "blend": "additive" },
	{ "name": "dot002_g6", "bone": "root", "attachment": "dot002_g", "blend": "additive" },
	{ "name": "dot002_g2", "bone": "root", "attachment": "dot002_g", "blend": "additive" },
	{ "name": "dot002_g3", "bone": "root", "attachment": "dot002_g", "blend": "additive" },
	{ "name": "dot002_g4", "bone": "root", "attachment": "dot002_g", "blend": "additive" },
	{ "name": "dot002_g7", "bone": "root", "attachment": "dot002_g", "blend": "additive" },
	{ "name": "dot002_g8", "bone": "root", "attachment": "dot002_g", "blend": "additive" },
	{ "name": "33_00000", "bone": "root", "attachment": "33_00000", "blend": "additive" },
	{ "name": "33_0", "bone": "root", "attachment": "33_00000", "blend": "additive" },
	{ "name": "33_1", "bone": "root", "attachment": "33_00000", "blend": "additive" },
	{ "name": "33_2", "bone": "root", "attachment": "33_00000", "blend": "additive" },
	{ "name": "33_3", "bone": "root", "attachment": "33_00000", "blend": "additive" },
	{ "name": "33_8", "bone": "root", "attachment": "33_00000", "blend": "additive" },
	{ "name": "33_4", "bone": "root", "attachment": "33_00000", "blend": "additive" },
	{ "name": "33_5", "bone": "root", "attachment": "33_00000", "blend": "additive" },
	{ "name": "33_6", "bone": "root", "attachment": "33_00000", "blend": "additive" },
	{ "name": "33_7", "bone": "root", "attachment": "33_00000", "blend": "additive" }
],
"skins": {
	"default": {
		"33_0": {
			"33_00000": { "x": 97.08, "y": 15.71, "scaleX": 0.8, "scaleY": 0.8, "rotation": -14.56, "width": 128, "height": 128 }
		},
		"33_00000": {
			"33_00000": { "x": -106.07, "y": 100.28, "width": 128, "height": 128 }
		},
		"33_1": {
			"33_00000": { "x": -6, "y": 113.14, "scaleX": 0.8, "scaleY": 0.8, "rotation": -14.56, "width": 128, "height": 128 }
		},
		"33_2": {
			"33_00000": { "x": 46.24, "y": 79.25, "scaleX": 0.4, "scaleY": 0.4, "rotation": -14.56, "width": 128, "height": 128 }
		},
		"33_3": {
			"33_00000": { "x": -134.92, "y": 2.93, "scaleX": 0.4, "scaleY": 0.4, "rotation": -14.56, "width": 128, "height": 128 }
		},
		"33_4": {
			"33_00000": { "x": 126.09, "y": 79.07, "scaleX": 0.4, "scaleY": 0.4, "rotation": -14.56, "width": 128, "height": 128 }
		},
		"33_5": {
			"33_00000": { "x": 145.38, "y": 18.77, "scaleX": 0.4, "scaleY": 0.4, "rotation": -14.56, "width": 128, "height": 128 }
		},
		"33_6": {
			"33_00000": { "x": 122.47, "y": -42.74, "scaleX": 0.4, "scaleY": 0.4, "rotation": -14.56, "width": 128, "height": 128 }
		},
		"33_7": {
			"33_00000": { "x": -2.95, "y": 159.87, "scaleX": 0.4, "scaleY": 0.4, "rotation": -14.56, "width": 128, "height": 128 }
		},
		"33_8": {
			"33_00000": { "x": 14.49, "y": -64.46, "scaleX": 0.4, "scaleY": 0.4, "rotation": -14.56, "width": 128, "height": 128 }
		},
		"Ye_0": {
			"Ye_0": { "x": -9.33, "y": -8.07, "width": 64, "height": 64 },
			"Ye_1": { "x": -9.33, "y": -8.07, "width": 64, "height": 64 },
			"Ye_2": { "x": -9.33, "y": -8.07, "width": 64, "height": 64 },
			"Ye_3": { "x": -9.33, "y": -8.07, "width": 64, "height": 64 },
			"Ye_4": { "x": -9.33, "y": -8.07, "width": 64, "height": 64 },
			"Ye_5": { "x": -9.33, "y": -8.07, "width": 64, "height": 64 }
		},
		"Ye_1": {
			"Ye_0": { "x": -9.33, "y": -8.07, "width": 64, "height": 64 },
			"Ye_1": { "x": -9.33, "y": -8.07, "width": 64, "height": 64 },
			"Ye_2": { "x": -9.33, "y": -8.07, "width": 64, "height": 64 },
			"Ye_3": { "x": -9.33, "y": -8.07, "width": 64, "height": 64 },
			"Ye_4": { "x": -9.33, "y": -8.07, "width": 64, "height": 64 },
			"Ye_5": { "x": -9.33, "y": -8.07, "width": 64, "height": 64 }
		},
		"Ye_2": {
			"Ye_0": { "x": -9.33, "y": -8.07, "width": 64, "height": 64 },
			"Ye_1": { "x": -9.33, "y": -8.07, "width": 64, "height": 64 },
			"Ye_2": { "x": -9.33, "y": -8.07, "width": 64, "height": 64 },
			"Ye_3": { "x": -9.33, "y": -8.07, "width": 64, "height": 64 },
			"Ye_4": { "x": -9.33, "y": -8.07, "width": 64, "height": 64 },
			"Ye_5": { "x": -9.33, "y": -8.07, "width": 64, "height": 64 }
		},
		"Ye_3": {
			"Ye_0": { "x": -9.33, "y": -8.07, "width": 64, "height": 64 },
			"Ye_1": { "x": -9.33, "y": -8.07, "width": 64, "height": 64 },
			"Ye_2": { "x": -9.33, "y": -8.07, "width": 64, "height": 64 },
			"Ye_3": { "x": -9.33, "y": -8.07, "width": 64, "height": 64 },
			"Ye_4": { "x": -9.33, "y": -8.07, "width": 64, "height": 64 },
			"Ye_5": { "x": -9.33, "y": -8.07, "width": 64, "height": 64 }
		},
		"Ye_4": {
			"Ye_0": { "x": -9.33, "y": -8.07, "width": 64, "height": 64 },
			"Ye_1": { "x": -9.33, "y": -8.07, "width": 64, "height": 64 },
			"Ye_2": { "x": -9.33, "y": -8.07, "width": 64, "height": 64 },
			"Ye_3": { "x": -9.33, "y": -8.07, "width": 64, "height": 64 },
			"Ye_4": { "x": -9.33, "y": -8.07, "width": 64, "height": 64 },
			"Ye_5": { "x": -9.33, "y": -8.07, "width": 64, "height": 64 }
		},
		"dot002_g": {
			"dot002_g": { "x": 101.76, "y": 107.49, "width": 64, "height": 64 }
		},
		"dot002_g2": {
			"dot002_g": { "x": -58.09, "y": 91.51, "scaleX": 0.8, "scaleY": 0.8, "width": 64, "height": 64 }
		},
		"dot002_g3": {
			"dot002_g": { "x": -84.5, "y": -20.39, "scaleX": 0.6, "scaleY": 0.6, "width": 64, "height": 64 }
		},
		"dot002_g4": {
			"dot002_g": { "x": 37.12, "y": -45.41, "scaleX": 0.4, "scaleY": 0.4, "width": 64, "height": 64 }
		},
		"dot002_g5": {
			"dot002_g": { "x": -120.49, "y": 57.41, "scaleX": 0.4, "scaleY": 0.4, "width": 64, "height": 64 }
		},
		"dot002_g6": {
			"dot002_g": { "x": 53.6, "y": 148.43, "scaleX": 0.7, "scaleY": 0.7, "width": 64, "height": 64 }
		},
		"dot002_g7": {
			"dot002_g": { "x": 84.68, "y": -67.08, "scaleX": 0.3, "scaleY": 0.3, "width": 64, "height": 64 }
		},
		"dot002_g8": {
			"dot002_g": { "x": -76.05, "y": -55.64, "scaleX": 0.3, "scaleY": 0.3, "width": 64, "height": 64 }
		},
		"glow01_w": {
			"glow01_w": { "x": -0.21, "y": -48.8, "width": 125, "height": 125 }
		},
		"glow01_w2": {
			"glow01_w": { "x": 113.91, "y": 69.13, "width": 125, "height": 125 }
		},
		"glow01_w3": {
			"glow01_w": { "x": -55.34, "y": -30.92, "scaleX": 1.2, "scaleY": 1.2, "width": 125, "height": 125 }
		},
		"glow01_w4": {
			"glow01_w": { "x": -113.45, "y": -6.34, "scaleX": 1.2, "scaleY": 1.2, "width": 125, "height": 125 }
		},
		"glow01_w5": {
			"glow01_w": { "x": 83.98, "y": 16.01, "scaleX": 1.4, "scaleY": 1.4, "width": 125, "height": 125 }
		},
		"glow01_w6": {
			"glow01_w": { "x": 23.63, "y": 30.17, "width": 125, "height": 125 }
		},
		"glow01_w7": {
			"glow01_w": { "x": 11.71, "y": 87.53, "scaleX": 1.5, "scaleY": 1.5, "width": 125, "height": 125 }
		},
		"glow01_w8": {
			"glow01_w": { "x": -85.88, "y": 87.53, "scaleX": 1.5, "scaleY": 1.5, "width": 125, "height": 125 }
		},
		"glow01_w9": {
			"glow01_w": { "x": 51.94, "y": 128.51, "scaleX": 1.5, "scaleY": 1.5, "width": 125, "height": 125 }
		},
		"hua1": {
			"hua1": { "x": 0.92, "y": 74.99, "width": 284, "height": 212 }
		},
		"hua10": {
			"hua10": { "x": -5.24, "y": 12.74, "width": 62, "height": 54 }
		},
		"hua11": {
			"hua11": { "x": -0.91, "y": 10.85, "width": 62, "height": 81 }
		},
		"hua12": {
			"hua12": { "x": 133.87, "y": 25.73, "width": 30, "height": 32 }
		},
		"hua13": {
			"hua13": { "x": 4.26, "y": 9.48, "width": 50, "height": 55 }
		},
		"hua14": {
			"hua14": {
				"type": "mesh",
				"uvs": [ 0.25532, 0.88879, 0.41903, 0.95752, 0.52928, 0.91934, 0.6863, 0.98806, 0.79655, 0.90024, 0.92684, 0.73988, 0.93352, 0.60243, 0.82327, 0.56043, 0.94021, 0.46115, 0.95023, 0.33515, 0.91014, 0.26643, 0.85668, 0.17479, 0.7765, 0.08315, 0.65289, 0.00679, 0.47248, 0.01061, 0.36557, 0, 0.22852, 0.10409, 0.01478, 0.26643, 0.03482, 0.50315, 0.09162, 0.67879, 0.14841, 0.7437, 0.30877, 0.48024, 0.35555, 0.64061, 0.45243, 0.69024, 0.5732, 0.69731, 0.74994, 0.62133, 0.76648, 0.43061, 0.75311, 0.28933, 0.58273, 0.21297, 0.409, 0.23588, 0.28539, 0.33515, 0.56268, 0.4917, 0.52927, 0.35806, 0.44909, 0.41533, 0.67631, 0.49929, 0.64286, 0.38097, 0.19184, 0.3237, 0.19852, 0.54133, 0.25866, 0.69024, 0.71784, 0.74965 ],
				"triangles": [ 1, 0, 23, 23, 0, 38, 1, 23, 2, 23, 38, 22, 2, 23, 24, 23, 31, 24, 23, 22, 31, 0, 20, 38, 20, 19, 38, 19, 37, 38, 38, 37, 22, 19, 18, 37, 37, 21, 22, 22, 21, 33, 18, 36, 37, 21, 36, 30, 21, 37, 36, 18, 17, 36, 21, 30, 33, 30, 36, 16, 36, 17, 16, 22, 33, 31, 31, 35, 34, 33, 32, 31, 31, 32, 35, 30, 29, 33, 33, 29, 32, 27, 35, 28, 35, 32, 28, 32, 29, 28, 29, 30, 16, 27, 28, 12, 16, 15, 29, 29, 14, 28, 29, 15, 14, 28, 13, 12, 28, 14, 13, 4, 3, 39, 3, 2, 39, 2, 24, 39, 4, 39, 5, 39, 25, 5, 39, 24, 25, 5, 25, 6, 6, 25, 7, 24, 34, 25, 24, 31, 34, 25, 34, 7, 34, 26, 7, 7, 26, 8, 34, 35, 26, 8, 26, 9, 35, 27, 26, 9, 27, 10, 9, 26, 27, 27, 11, 10, 27, 12, 11 ],
				"vertices": [ 2, 25, 3.89, 23.64, 0.14557, 26, 20.6, -6.15, 0.85443, 3, 18, -7.9, -25.05, 0.0206, 23, -37.72, 4.45, 0.02525, 26, 17.09, 8.79, 0.95415, 3, 18, 1.8, -22.11, 0.14656, 23, -29.94, -2.06, 0.18521, 26, 9.3, 15.28, 0.66824, 3, 18, 15.62, -27.4, 0.1906, 23, -26.79, -16.51, 0.47879, 26, 6.12, 29.73, 0.3306, 3, 18, 25.02, -20.94, 0.14467, 23, -16.22, -20.83, 0.65443, 26, -4.46, 34.03, 0.2009, 3, 18, 36.78, -8.29, 0.0209, 23, 0.8, -23.74, 0.94357, 26, -21.48, 36.9, 0.03553, 2, 23, 9.97, -18.42, 0.99322, 26, -30.64, 31.57, 0.00678, 2, 23, 7.36, -8.54, 0.9982, 26, -28.01, 21.69, 0.0018, 1, 23, 19.39, -12.95, 1, 2, 23, 27.99, -8.37, 0.99989, 24, 12.12, -35.59, 1.1E-4, 2, 23, 30.48, -2.52, 0.96954, 24, 16.97, -31.48, 0.03046, 2, 23, 33.8, 5.29, 0.77233, 24, 23.44, -25.99, 0.22767, 2, 23, 35.83, 15.06, 0.43596, 24, 29.63, -18.17, 0.56404, 2, 23, 34.78, 27.38, 0.11419, 24, 34.22, -6.69, 0.88581, 3, 23, 25.83, 40.49, 1.0E-5, 24, 32.1, 9.05, 0.93116, 25, -9.42, -45.36, 0.06883, 2, 24, 31.83, 18.49, 0.82848, 25, 0.03, -45.37, 0.17152, 2, 24, 22.48, 29.55, 0.58062, 25, 11.36, -36.36, 0.41938, 2, 24, 7.89, 46.79, 0.20485, 25, 29.04, -22.31, 0.79515, 2, 24, -10.01, 42.94, 0.04187, 25, 25.74, -4.3, 0.95813, 2, 25, 19.61, 8.75, 0.93921, 26, 15.01, -27.08, 0.06079, 2, 25, 14.21, 13.31, 0.75949, 26, 16.44, -20.15, 0.24051, 3, 18, -17.61, 11.7, 0.01395, 24, -5.48, 19.19, 0.19761, 25, 1.87, -8.1, 0.78844, 4, 18, -13.49, -0.65, 0.04132, 24, -17.27, 13.68, 0.00622, 25, -3.28, 3.85, 0.62916, 26, -0.22, -9.29, 0.3233, 5, 18, -4.96, -4.47, 0.15247, 23, -18.9, 13.27, 0.00109, 24, -20.09, 4.77, 1.7E-4, 25, -12.1, 6.94, 0.02139, 26, -1.71, -0.07, 0.82488, 4, 18, 5.62, -5.06, 0.54876, 23, -13.59, 4.1, 0.24676, 24, -19.45, -5.81, 0.00123, 26, -7.04, 9.09, 0.20325, 3, 18, 21.2, 0.82, 0.01897, 23, -0.12, -5.71, 0.96391, 26, -20.52, 18.87, 0.01713, 2, 23, 12.97, 1.12, 0.98133, 24, 2.95, -20.38, 0.01867, 2, 23, 21.43, 8.07, 0.73048, 24, 13.62, -17.95, 0.26952, 2, 23, 18.12, 23.84, 0.03529, 24, 17.74, -2.38, 0.96471, 2, 24, 14.23, 12.6, 0.79709, 25, -5.32, -27.6, 0.20291, 3, 18, -19.66, 22.87, 1.8E-4, 24, 5.38, 22.53, 0.42616, 25, 4.87, -19.06, 0.57366, 4, 18, 4.74, 10.82, 0.20221, 23, -0.79, 13.54, 0.15253, 24, -3.78, -3.1, 0.64034, 25, -20.47, -9.12, 0.00492, 2, 24, 6.1, 1, 0.99161, 25, -16.67, -19.12, 0.00839, 3, 18, -5.26, 16.7, 0.04287, 24, 0.91, 7.5, 0.74274, 25, -10.01, -14.13, 0.21439, 3, 18, 14.73, 10.23, 0.03623, 23, 4.2, 4.86, 0.78961, 24, -3.22, -13.1, 0.17416, 3, 18, 11.79, 19.34, 6.5E-4, 23, 10.21, 12.32, 0.39268, 24, 5.5, -9.13, 0.60667, 2, 24, 5.31, 30.8, 0.29435, 25, 13.14, -19.24, 0.70565, 2, 24, -11.27, 28.29, 0.01808, 25, 11.14, -2.59, 0.98192, 2, 25, 4.89, 8.38, 0.6965, 26, 7.67, -14.31, 0.3035, 3, 18, 18.26, -9.18, 0.1693, 23, -10.1, -8.73, 0.69012, 26, -10.56, 21.91, 0.14058 ],
				"hull": 21
			}
		},
		"hua15": {
			"hua15": { "x": 10.58, "y": 13, "width": 36, "height": 43 }
		},
		"hua16": {
			"hua16": { "x": 9.04, "y": 7.37, "width": 64, "height": 65 }
		},
		"hua17": {
			"hua17": { "x": -9.04, "y": 8.54, "width": 52, "height": 40 }
		},
		"hua18": {
			"hua18": { "x": 2.36, "y": 8.34, "width": 42, "height": 28 }
		},
		"hua2": {
			"hua2": { "x": -5.5, "y": -7.41, "width": 55, "height": 54 }
		},
		"hua3": {
			"hua3": { "x": -2.11, "y": -1.9, "width": 56, "height": 46 }
		},
		"hua4": {
			"hua4": { "x": -15.13, "y": -13.77, "width": 120, "height": 81 }
		},
		"hua5": {
			"hua5": {
				"type": "mesh",
				"uvs": [ 0.22874, 0.84268, 0.3772, 0.88449, 0.51729, 0.94513, 0.70547, 0.88449, 0.79329, 0.81759, 0.88947, 0.69213, 0.9501, 0.52486, 0.89783, 0.12132, 0.73892, 0.02304, 0.45665, 0.00422, 0.20992, 0.05441, 0.09283, 0.17568, 0, 0.36177, 0, 0.65868, 0.10747, 0.79459, 0.28939, 0.52487, 0.36257, 0.65241, 0.4253, 0.79041, 0.59048, 0.61896, 0.7473, 0.44541, 0.64275, 0.25305, 0.4253, 0.32414, 0.49011, 0.42659, 0.6302, 0.40987, 0.38348, 0.22587, 0.22875, 0.29696, 0.47966, 0.1715, 0.70548, 0.21332, 0.76611, 0.36178, 0.60093, 0.75696, 0.7473, 0.6315, 0.15766, 0.64823, 0.15139, 0.44123, 0.21202, 0.40359 ],
				"triangles": [ 13, 12, 32, 15, 32, 33, 15, 31, 32, 15, 33, 21, 21, 33, 25, 33, 32, 25, 25, 32, 12, 12, 11, 25, 25, 24, 21, 24, 25, 10, 25, 11, 10, 24, 10, 9, 1, 0, 17, 14, 31, 0, 0, 16, 17, 0, 31, 16, 14, 13, 31, 13, 32, 31, 31, 15, 16, 1, 17, 2, 2, 29, 3, 2, 17, 29, 3, 29, 4, 29, 30, 4, 4, 30, 5, 29, 17, 18, 17, 16, 18, 29, 18, 30, 5, 30, 6, 30, 19, 6, 30, 18, 19, 18, 23, 19, 19, 28, 6, 16, 22, 18, 16, 15, 22, 18, 22, 23, 15, 21, 22, 28, 7, 6, 19, 23, 28, 23, 22, 20, 23, 20, 28, 20, 22, 21, 20, 27, 28, 28, 27, 7, 21, 26, 20, 21, 24, 26, 20, 26, 27, 26, 24, 9, 27, 8, 7, 27, 26, 8, 26, 9, 8 ],
				"vertices": [ 3, 10, -12.24, -14.05, 0.00164, 16, -21.78, -5.88, 0.01211, 19, -2.91, 4.93, 0.98625, 3, 10, -2.44, -16.81, 0.11171, 16, -12.61, -10.3, 0.38777, 19, -10.52, -1.82, 0.50052, 3, 10, 6.81, -20.81, 0.03332, 16, -4.2, -15.85, 0.79458, 19, -18.88, -7.45, 0.1721, 2, 16, 8.73, -14.06, 0.98349, 19, -22.21, -20.06, 0.01651, 2, 16, 15.2, -10.72, 0.99961, 19, -21.62, -27.33, 3.9E-4, 2, 13, 0.76, -31.68, 4.6E-4, 16, 22.89, -3.67, 0.99954, 2, 13, 12.51, -31.49, 0.17771, 16, 28.75, 6.51, 0.82229, 2, 13, 36.17, -18.78, 0.85661, 16, 29.98, 33.33, 0.14339, 2, 13, 38.49, -6.67, 0.96106, 16, 20.78, 41.54, 0.03894, 2, 13, 33.02, 11.18, 0.77549, 27, 31.23, -18.94, 0.22451, 2, 13, 24.13, 25.22, 0.14218, 27, 30.96, -2.32, 0.85782, 3, 13, 13.9, 29.59, 5.4E-4, 19, 38.99, -11.27, 0.00369, 27, 24.5, 6.74, 0.99578, 2, 19, 31.96, 0.52, 0.16045, 27, 13.55, 15.01, 0.83955, 2, 19, 15.46, 11.09, 0.91911, 27, -5.72, 18.6, 0.08089, 1, 19, 4.08, 9.96, 1, 4, 10, -8.24, 6.93, 0.05391, 13, -3.02, 9.26, 0.08514, 19, 12.59, -9.75, 0.00461, 27, -0.53, -1.8, 0.85633, 5, 10, -3.41, -1.49, 0.68816, 13, -9.17, 1.75, 0.00354, 16, -10.9, 4.95, 0.01722, 19, 2.9, -9.28, 0.22212, 27, -9.69, -5.01, 0.06896, 3, 10, 0.73, -10.6, 0.22804, 16, -8.4, -4.73, 0.44944, 19, -7.01, -7.85, 0.32252, 3, 10, 11.64, 0.72, 0.02433, 13, -1.75, -11.52, 0.1898, 16, 4.3, 4.52, 0.78588, 2, 13, 12.64, -17.11, 0.47602, 16, 16.48, 14, 0.52398, 2, 13, 22.05, -6.14, 0.93274, 16, 11.89, 27.7, 0.06726, 2, 13, 12.55, 5.6, 0.77333, 27, 10.85, -13.04, 0.22667, 2, 13, 7.76, -0.81, 0.99053, 16, -0.02, 18.17, 0.00947, 2, 13, 12.08, -9.05, 0.76269, 16, 9.28, 17.65, 0.23731, 2, 13, 17.63, 10.49, 0.55705, 27, 17.74, -11.51, 0.44295, 2, 13, 9.61, 18.36, 0.0089, 27, 14.99, -0.61, 0.9911, 2, 13, 23.25, 5.83, 0.85973, 27, 20.1, -18.41, 0.14027, 2, 13, 25.97, -9.08, 0.90354, 16, 16.43, 29.56, 0.09646, 2, 13, 18.24, -16.31, 0.63496, 16, 18.67, 19.22, 0.36504, 2, 16, 3.4, -4.57, 0.98413, 19, -11.4, -18.8, 0.01587, 2, 13, 1.16, -21.48, 0.02813, 16, 14.35, 1.9, 0.97187, 1, 19, 10.43, 1.96, 1, 2, 19, 22.15, -5.07, 0.1506, 27, 6.56, 6.15, 0.8494, 2, 19, 22.08, -9.78, 0.01712, 27, 8.27, 1.76, 0.98288 ],
				"hull": 15
			}
		},
		"hua6": {
			"hua6": { "x": 57.59, "y": -20.81, "width": 42, "height": 39 }
		},
		"hua7": {
			"hua7": { "x": -15.11, "y": -8.66, "width": 55, "height": 58 }
		},
		"hua8": {
			"hua8": { "x": -31.59, "y": -13.69, "width": 98, "height": 118 }
		},
		"hua9": {
			"hua9": { "x": -118.13, "y": 60.23, "width": 26, "height": 27 }
		},
		"hua_0": {
			"hua_0": { "x": 6.53, "y": -8.77, "width": 64, "height": 64 },
			"hua_1": { "x": 6.53, "y": -8.77, "width": 64, "height": 64 },
			"hua_2": { "x": 6.53, "y": -8.77, "width": 64, "height": 64 },
			"hua_3": { "x": 6.53, "y": -8.77, "width": 64, "height": 64 }
		},
		"hua_1": {
			"hua_0": { "x": 6.53, "y": -8.77, "width": 64, "height": 64 },
			"hua_1": { "x": 6.53, "y": -8.77, "width": 64, "height": 64 },
			"hua_2": { "x": 6.53, "y": -8.77, "width": 64, "height": 64 },
			"hua_3": { "x": 6.53, "y": -8.77, "width": 64, "height": 64 }
		},
		"hua_2": {
			"hua_0": { "x": 6.53, "y": -8.77, "width": 64, "height": 64 },
			"hua_1": { "x": 6.53, "y": -8.77, "width": 64, "height": 64 },
			"hua_2": { "x": 6.53, "y": -8.77, "width": 64, "height": 64 },
			"hua_3": { "x": 6.53, "y": -8.77, "width": 64, "height": 64 }
		},
		"hua_3": {
			"hua_0": { "x": 6.53, "y": -8.77, "width": 64, "height": 64 },
			"hua_1": { "x": 6.53, "y": -8.77, "width": 64, "height": 64 },
			"hua_2": { "x": 6.53, "y": -8.77, "width": 64, "height": 64 },
			"hua_3": { "x": 6.53, "y": -8.77, "width": 64, "height": 64 }
		},
		"hua_4": {
			"hua_0": { "x": 6.53, "y": -8.77, "width": 64, "height": 64 },
			"hua_1": { "x": 6.53, "y": -8.77, "width": 64, "height": 64 },
			"hua_2": { "x": 6.53, "y": -8.77, "width": 64, "height": 64 },
			"hua_3": { "x": 6.53, "y": -8.77, "width": 64, "height": 64 }
		},
		"hua_5": {
			"hua_0": { "x": 6.53, "y": -8.77, "width": 64, "height": 64 },
			"hua_1": { "x": 6.53, "y": -8.77, "width": 64, "height": 64 },
			"hua_2": { "x": 6.53, "y": -8.77, "width": 64, "height": 64 },
			"hua_3": { "x": 6.53, "y": -8.77, "width": 64, "height": 64 }
		},
		"hua_6": {
			"hua_0": { "x": 6.53, "y": -8.77, "width": 64, "height": 64 },
			"hua_1": { "x": 6.53, "y": -8.77, "width": 64, "height": 64 },
			"hua_2": { "x": 6.53, "y": -8.77, "width": 64, "height": 64 },
			"hua_3": { "x": 6.53, "y": -8.77, "width": 64, "height": 64 }
		},
		"hua_7": {
			"hua_0": { "x": 6.53, "y": -8.77, "width": 64, "height": 64 },
			"hua_1": { "x": 6.53, "y": -8.77, "width": 64, "height": 64 },
			"hua_2": { "x": 6.53, "y": -8.77, "width": 64, "height": 64 },
			"hua_3": { "x": 6.53, "y": -8.77, "width": 64, "height": 64 }
		},
		"huaguduo": {
			"huaguduo": { "x": -10.3, "y": 83.71, "width": 275, "height": 226 }
		},
		"keng": {
			"keng": { "x": 6.87, "y": -80.27, "width": 300, "height": 192 }
		},
		"tuan": {
			"tuan": { "x": -3.8, "y": 52.71, "width": 300, "height": 288 }
		},
		"yingying": {
			"yingying": { "x": -5.8, "y": 81.21, "width": 284, "height": 241 }
		}
	}
},
"animations": {
	"loop": {
		"slots": {
			"33_00000": {
				"color": [
					{ "time": 0, "color": "ffffff00", "curve": "stepped" },
					{ "time": 0.6333, "color": "ffffff00" },
					{ "time": 0.6667, "color": "ffffffff" },
					{ "time": 0.8333, "color": "ffffff00" }
				]
			},
			"33_0": {
				"color": [
					{ "time": 0, "color": "ffffff00", "curve": "stepped" },
					{ "time": 0.4667, "color": "ffffff00" },
					{ "time": 0.5667, "color": "ffffffff" },
					{ "time": 0.7667, "color": "ffffff00" }
				]
			},
			"33_1": {
				"color": [
					{ "time": 0, "color": "ffffff00", "curve": "stepped" },
					{ "time": 0.8, "color": "ffffff00" },
					{ "time": 0.9, "color": "ffffffff" },
					{ "time": 1.1, "color": "ffffff00" }
				]
			},
			"33_2": {
				"color": [
					{ "time": 0, "color": "ffffff00", "curve": "stepped" },
					{ "time": 0.7, "color": "ffffff00" },
					{ "time": 0.8, "color": "ffffffff" },
					{ "time": 1, "color": "ffffff00" }
				]
			},
			"33_3": {
				"color": [
					{ "time": 0, "color": "ffffff00", "curve": "stepped" },
					{ "time": 0.1667, "color": "ffffff00" },
					{ "time": 0.3333, "color": "ffffffff" },
					{ "time": 0.8333, "color": "ffffff00" }
				]
			},
			"33_4": {
				"color": [
					{ "time": 0, "color": "ffffff00", "curve": "stepped" },
					{ "time": 0.3667, "color": "ffffff00" },
					{ "time": 0.5333, "color": "ffffffff" },
					{ "time": 0.8, "color": "ffffff00" }
				]
			},
			"33_5": {
				"color": [
					{ "time": 0, "color": "ffffff00", "curve": "stepped" },
					{ "time": 0.5333, "color": "ffffff00" },
					{ "time": 0.7, "color": "ffffffff" },
					{ "time": 1.0667, "color": "ffffff00" }
				]
			},
			"33_6": {
				"color": [
					{ "time": 0, "color": "ffffff00", "curve": "stepped" },
					{ "time": 0.1333, "color": "ffffff00" },
					{ "time": 0.3, "color": "ffffffff" },
					{ "time": 0.6, "color": "ffffff00" }
				]
			},
			"33_7": {
				"color": [
					{ "time": 0, "color": "ffffff00", "curve": "stepped" },
					{ "time": 0.7333, "color": "ffffff00" },
					{ "time": 0.8667, "color": "ffffffff" },
					{ "time": 1.2333, "color": "ffffff00" }
				]
			},
			"33_8": {
				"color": [
					{ "time": 0, "color": "ffffff00", "curve": "stepped" },
					{ "time": 0.1667, "color": "ffffff00" },
					{ "time": 0.3333, "color": "ffffffff" },
					{ "time": 0.8333, "color": "ffffff00" }
				]
			},
			"Ye_0": {
				"attachment": [
					{ "time": 0, "name": null }
				]
			},
			"Ye_1": {
				"attachment": [
					{ "time": 0, "name": null }
				]
			},
			"Ye_2": {
				"attachment": [
					{ "time": 0, "name": null }
				]
			},
			"Ye_3": {
				"attachment": [
					{ "time": 0, "name": null }
				]
			},
			"Ye_4": {
				"attachment": [
					{ "time": 0, "name": null }
				]
			},
			"dot002_g": {
				"color": [
					{ "time": 0, "color": "ffffff00" }
				]
			},
			"dot002_g2": {
				"color": [
					{ "time": 0, "color": "ffffff00" }
				]
			},
			"dot002_g3": {
				"color": [
					{ "time": 0, "color": "ffffff00" }
				]
			},
			"dot002_g4": {
				"color": [
					{ "time": 0, "color": "ffffff00" }
				]
			},
			"dot002_g5": {
				"color": [
					{ "time": 0, "color": "ffffff00" }
				]
			},
			"dot002_g6": {
				"color": [
					{ "time": 0, "color": "ffffff00" }
				]
			},
			"dot002_g7": {
				"color": [
					{ "time": 0, "color": "ffffff00" }
				]
			},
			"dot002_g8": {
				"color": [
					{ "time": 0, "color": "ffffff00", "curve": "stepped" },
					{ "time": 0.2, "color": "ffffff00" },
					{ "time": 0.3667, "color": "ffffffff" },
					{ "time": 0.8333, "color": "ffffff00" }
				]
			},
			"glow01_w": {
				"color": [
					{ "time": 0, "color": "ffffff00" }
				]
			},
			"glow01_w2": {
				"color": [
					{ "time": 0, "color": "ffffff00" }
				]
			},
			"glow01_w3": {
				"color": [
					{ "time": 0, "color": "ffffff00" }
				]
			},
			"glow01_w4": {
				"color": [
					{ "time": 0, "color": "ffffff00" }
				]
			},
			"glow01_w5": {
				"color": [
					{ "time": 0, "color": "ffffff00" }
				]
			},
			"glow01_w6": {
				"color": [
					{ "time": 0, "color": "ffffff00" }
				]
			},
			"glow01_w7": {
				"color": [
					{ "time": 0, "color": "ffffff00" }
				]
			},
			"glow01_w8": {
				"color": [
					{ "time": 0, "color": "ffffff00" }
				]
			},
			"glow01_w9": {
				"color": [
					{ "time": 0, "color": "ffffff00" }
				]
			},
			"hua4": {
				"color": [
					{ "time": 0, "color": "ffffffff" }
				]
			},
			"hua6": {
				"color": [
					{ "time": 0, "color": "ffffffff" }
				]
			},
			"hua9": {
				"color": [
					{ "time": 0, "color": "ffffffff" }
				]
			},
			"hua12": {
				"color": [
					{ "time": 0, "color": "ffffffff" }
				]
			},
			"hua_0": {
				"attachment": [
					{ "time": 0, "name": null }
				]
			},
			"hua_1": {
				"attachment": [
					{ "time": 0, "name": null }
				]
			},
			"hua_2": {
				"attachment": [
					{ "time": 0, "name": null }
				]
			},
			"hua_3": {
				"attachment": [
					{ "time": 0, "name": null }
				]
			},
			"hua_4": {
				"attachment": [
					{ "time": 0, "name": null }
				]
			},
			"hua_5": {
				"attachment": [
					{ "time": 0, "name": null }
				]
			},
			"hua_6": {
				"attachment": [
					{ "time": 0, "name": null }
				]
			},
			"hua_7": {
				"attachment": [
					{ "time": 0, "name": null }
				]
			},
			"huaguduo": {
				"color": [
					{ "time": 0, "color": "ffffff00" }
				]
			},
			"yingying": {
				"color": [
					{ "time": 0, "color": "ffffffff" }
				]
			}
		},
		"bones": {
			"hua1": {
				"rotate": [
					{ "time": 0.2333, "angle": 0 },
					{ "time": 0.5667, "angle": -6.46 },
					{ "time": 1.4, "angle": 0 }
				],
				"scale": [
					{ "time": 0, "x": 1, "y": 1 }
				]
			},
			"hua2": {
				"rotate": [
					{ "time": 0.2333, "angle": 0 },
					{ "time": 0.5667, "angle": -9.21 },
					{ "time": 1.4, "angle": 0 }
				],
				"translate": [
					{ "time": 0, "x": -14.4, "y": 9.12 }
				],
				"scale": [
					{ "time": 0, "x": 1, "y": 1 }
				]
			},
			"hua7": {
				"scale": [
					{ "time": 0.5, "x": 1, "y": 1 }
				]
			},
			"hua8": {
				"rotate": [
					{ "time": 0, "angle": 0 },
					{ "time": 0.3667, "angle": -6.95 },
					{ "time": 0.9, "angle": 7.08 },
					{ "time": 1.4667, "angle": 0 }
				]
			},
			"hua13": {
				"rotate": [
					{ "time": 0, "angle": 0 },
					{ "time": 1, "angle": 4.86 },
					{ "time": 1.4667, "angle": 0 }
				]
			},
			"hua10": {
				"rotate": [
					{ "time": 0.2, "angle": 0 },
					{ "time": 0.9333, "angle": -8.55 },
					{ "time": 1.4667, "angle": 0 }
				],
				"scale": [
					{ "time": 0, "x": 1, "y": 1 }
				]
			},
			"hua14": {
				"rotate": [
					{ "time": 0.7333, "angle": 0 },
					{ "time": 1.0333, "angle": -5.01 },
					{ "time": 1.4, "angle": 0 }
				]
			},
			"hua3": {
				"rotate": [
					{ "time": 0, "angle": 0 },
					{ "time": 0.4667, "angle": -3.25 },
					{ "time": 1.4, "angle": 0 }
				]
			},
			"hua12": {
				"rotate": [
					{ "time": 0, "angle": 0 }
				]
			},
			"hua23": {
				"rotate": [
					{ "time": 0, "angle": 0 }
				]
			},
			"hua15": {
				"translate": [
					{ "time": 0, "x": 0, "y": 0 }
				]
			},
			"hua24": {
				"rotate": [
					{ "time": 0.1, "angle": 0 },
					{ "time": 0.4667, "angle": -6.97 },
					{ "time": 1.4667, "angle": 0 }
				]
			},
			"hua5": {
				"rotate": [
					{ "time": 0.6, "angle": 0 },
					{ "time": 0.9333, "angle": 9.27 },
					{ "time": 1.4667, "angle": 0 }
				]
			}
		}
	},
	"open": {
		"slots": {
			"33_00000": {
				"color": [
					{ "time": 0, "color": "ffffff00", "curve": "stepped" },
					{ "time": 0.6333, "color": "ffffff00" },
					{ "time": 0.6667, "color": "ffffffff" },
					{ "time": 0.8333, "color": "ffffff00" }
				]
			},
			"33_0": {
				"color": [
					{ "time": 0, "color": "ffffff00", "curve": "stepped" },
					{ "time": 0.4667, "color": "ffffff00" },
					{ "time": 0.5667, "color": "ffffffff" },
					{ "time": 0.7667, "color": "ffffff00" }
				]
			},
			"33_1": {
				"color": [
					{ "time": 0, "color": "ffffff00", "curve": "stepped" },
					{ "time": 0.8, "color": "ffffff00" },
					{ "time": 0.9, "color": "ffffffff" },
					{ "time": 1.1, "color": "ffffff00" }
				]
			},
			"33_2": {
				"color": [
					{ "time": 0, "color": "ffffff00", "curve": "stepped" },
					{ "time": 0.7, "color": "ffffff00" },
					{ "time": 0.8, "color": "ffffffff" },
					{ "time": 1, "color": "ffffff00" }
				]
			},
			"33_3": {
				"color": [
					{ "time": 0, "color": "ffffff00", "curve": "stepped" },
					{ "time": 0.1667, "color": "ffffff00" },
					{ "time": 0.3333, "color": "ffffffff" },
					{ "time": 0.8333, "color": "ffffff00" }
				]
			},
			"33_4": {
				"color": [
					{ "time": 0, "color": "ffffff00", "curve": "stepped" },
					{ "time": 0.3667, "color": "ffffff00" },
					{ "time": 0.5333, "color": "ffffffff" },
					{ "time": 0.8, "color": "ffffff00" }
				]
			},
			"33_5": {
				"color": [
					{ "time": 0, "color": "ffffff00", "curve": "stepped" },
					{ "time": 0.5333, "color": "ffffff00" },
					{ "time": 0.7, "color": "ffffffff" },
					{ "time": 1.0667, "color": "ffffff00" }
				]
			},
			"33_6": {
				"color": [
					{ "time": 0, "color": "ffffff00", "curve": "stepped" },
					{ "time": 0.1333, "color": "ffffff00" },
					{ "time": 0.3, "color": "ffffffff" },
					{ "time": 0.6, "color": "ffffff00" }
				]
			},
			"33_7": {
				"color": [
					{ "time": 0, "color": "ffffff00", "curve": "stepped" },
					{ "time": 0.7333, "color": "ffffff00" },
					{ "time": 0.8667, "color": "ffffffff" },
					{ "time": 1.2333, "color": "ffffff00" }
				]
			},
			"33_8": {
				"color": [
					{ "time": 0, "color": "ffffff00", "curve": "stepped" },
					{ "time": 0.1667, "color": "ffffff00" },
					{ "time": 0.3333, "color": "ffffffff" },
					{ "time": 0.8333, "color": "ffffff00" }
				]
			},
			"Ye_0": {
				"color": [
					{ "time": 0.4667, "color": "ffffffff" },
					{ "time": 0.6667, "color": "ffffff00" }
				],
				"attachment": [
					{ "time": 0, "name": null },
					{ "time": 0.1667, "name": null },
					{ "time": 0.2, "name": "Ye_0" },
					{ "time": 0.2333, "name": "Ye_1" },
					{ "time": 0.3333, "name": "Ye_2" },
					{ "time": 0.4, "name": "Ye_3" },
					{ "time": 0.5, "name": "Ye_4" },
					{ "time": 0.6333, "name": "Ye_5" }
				]
			},
			"Ye_1": {
				"color": [
					{ "time": 0.5, "color": "ffffffff" },
					{ "time": 0.7, "color": "ffffff00" }
				],
				"attachment": [
					{ "time": 0, "name": null },
					{ "time": 0.2, "name": null },
					{ "time": 0.2333, "name": "Ye_0" },
					{ "time": 0.2667, "name": "Ye_1" },
					{ "time": 0.3667, "name": "Ye_2" },
					{ "time": 0.4333, "name": "Ye_3" },
					{ "time": 0.5333, "name": "Ye_4" },
					{ "time": 0.6667, "name": "Ye_5" }
				]
			},
			"Ye_2": {
				"color": [
					{ "time": 0.7333, "color": "ffffffff" },
					{ "time": 0.8333, "color": "ffffff00" }
				],
				"attachment": [
					{ "time": 0, "name": null },
					{ "time": 0.4, "name": null },
					{ "time": 0.4333, "name": "Ye_0" },
					{ "time": 0.4667, "name": "Ye_1" },
					{ "time": 0.5333, "name": "Ye_2" },
					{ "time": 0.6667, "name": "Ye_3" },
					{ "time": 0.7667, "name": "Ye_4" },
					{ "time": 0.8333, "name": "Ye_5" }
				]
			},
			"Ye_3": {
				"color": [
					{ "time": 0.5, "color": "ffffffff" },
					{ "time": 0.7, "color": "ffffff00" }
				],
				"attachment": [
					{ "time": 0, "name": null },
					{ "time": 0.2, "name": null },
					{ "time": 0.2333, "name": "Ye_0" },
					{ "time": 0.2667, "name": "Ye_1" },
					{ "time": 0.3667, "name": "Ye_2" },
					{ "time": 0.4333, "name": "Ye_3" },
					{ "time": 0.5333, "name": "Ye_4" },
					{ "time": 0.6667, "name": "Ye_5" }
				]
			},
			"Ye_4": {
				"color": [
					{ "time": 0.5, "color": "ffffffff" },
					{ "time": 0.7, "color": "ffffff00" }
				],
				"attachment": [
					{ "time": 0, "name": null },
					{ "time": 0.2, "name": null },
					{ "time": 0.2333, "name": "Ye_0" },
					{ "time": 0.2667, "name": "Ye_1" },
					{ "time": 0.3667, "name": "Ye_2" },
					{ "time": 0.4333, "name": "Ye_3" },
					{ "time": 0.5333, "name": "Ye_4" },
					{ "time": 0.6667, "name": "Ye_5" }
				]
			},
			"dot002_g": {
				"color": [
					{ "time": 0, "color": "ffffff00", "curve": "stepped" },
					{ "time": 0.4, "color": "ffffff00" },
					{ "time": 0.5667, "color": "ffffffff" },
					{ "time": 1.1333, "color": "ffffff00", "curve": "stepped" },
					{ "time": 1.2667, "color": "ffffff00" }
				]
			},
			"dot002_g2": {
				"color": [
					{ "time": 0, "color": "ffffff00", "curve": "stepped" },
					{ "time": 0.2667, "color": "ffffff00" },
					{ "time": 0.4333, "color": "ffffffff" },
					{ "time": 1.0667, "color": "ffffff00" }
				]
			},
			"dot002_g3": {
				"color": [
					{ "time": 0, "color": "ffffff00", "curve": "stepped" },
					{ "time": 0.1667, "color": "ffffff00" },
					{ "time": 0.3333, "color": "ffffffff" },
					{ "time": 0.8667, "color": "ffffff00" }
				]
			},
			"dot002_g4": {
				"color": [
					{ "time": 0, "color": "ffffff00", "curve": "stepped" },
					{ "time": 0.1, "color": "ffffff00" },
					{ "time": 0.2333, "color": "ffffffff" },
					{ "time": 0.8333, "color": "ffffff00" }
				]
			},
			"dot002_g5": {
				"color": [
					{ "time": 0, "color": "ffffff00", "curve": "stepped" },
					{ "time": 0.5, "color": "ffffff00" },
					{ "time": 0.7, "color": "ffffffff" },
					{ "time": 1.2667, "color": "ffffff00" }
				]
			},
			"dot002_g6": {
				"color": [
					{ "time": 0, "color": "ffffff00", "curve": "stepped" },
					{ "time": 0.5333, "color": "ffffff00" },
					{ "time": 0.7333, "color": "ffffffff" },
					{ "time": 1.1667, "color": "ffffff00", "curve": "stepped" },
					{ "time": 1.2667, "color": "ffffff00" }
				]
			},
			"dot002_g7": {
				"color": [
					{ "time": 0, "color": "ffffff00", "curve": "stepped" },
					{ "time": 0.1, "color": "ffffff00" },
					{ "time": 0.2333, "color": "ffffffff" },
					{ "time": 0.8333, "color": "ffffff00" }
				]
			},
			"dot002_g8": {
				"color": [
					{ "time": 0, "color": "ffffff00", "curve": "stepped" },
					{ "time": 0.2, "color": "ffffff00" },
					{ "time": 0.3667, "color": "ffffffff" },
					{ "time": 0.8333, "color": "ffffff00" }
				]
			},
			"glow01_w": {
				"color": [
					{ "time": 0, "color": "ffffff00", "curve": "stepped" },
					{ "time": 0.0333, "color": "ffffff00" },
					{ "time": 0.2, "color": "ffffffff" },
					{ "time": 0.5, "color": "ffffff00" }
				]
			},
			"glow01_w2": {
				"color": [
					{ "time": 0, "color": "ffffff00", "curve": "stepped" },
					{ "time": 0.2333, "color": "ffffff00" },
					{ "time": 0.3667, "color": "ffffffff" },
					{ "time": 0.8667, "color": "ffffff00" }
				]
			},
			"glow01_w3": {
				"color": [
					{ "time": 0, "color": "ffffff00", "curve": "stepped" },
					{ "time": 0.1, "color": "ffffff00" },
					{ "time": 0.2333, "color": "ffffffff" },
					{ "time": 0.6333, "color": "ffffff00" }
				]
			},
			"glow01_w4": {
				"color": [
					{ "time": 0, "color": "ffffff00", "curve": "stepped" },
					{ "time": 0.2, "color": "ffffff00" },
					{ "time": 0.3, "color": "ffffffff" },
					{ "time": 0.6, "color": "ffffff00" }
				]
			},
			"glow01_w5": {
				"color": [
					{ "time": 0, "color": "ffffff00", "curve": "stepped" },
					{ "time": 0.2, "color": "ffffff00" },
					{ "time": 0.4, "color": "ffffffff" },
					{ "time": 0.7667, "color": "ffffff00" }
				]
			},
			"glow01_w6": {
				"color": [
					{ "time": 0, "color": "ffffff00", "curve": "stepped" },
					{ "time": 0.2, "color": "ffffff00" },
					{ "time": 0.3667, "color": "ffffffff" },
					{ "time": 0.6667, "color": "ffffff00" }
				]
			},
			"glow01_w7": {
				"color": [
					{ "time": 0, "color": "ffffff00", "curve": "stepped" },
					{ "time": 0.3667, "color": "ffffff00" },
					{ "time": 0.5667, "color": "ffffffff" },
					{ "time": 0.9667, "color": "ffffff00" }
				]
			},
			"glow01_w8": {
				"color": [
					{ "time": 0, "color": "ffffff00", "curve": "stepped" },
					{ "time": 0.5667, "color": "ffffff00" },
					{ "time": 0.7333, "color": "ffffffff" },
					{ "time": 1.1333, "color": "ffffff00" }
				]
			},
			"glow01_w9": {
				"color": [
					{ "time": 0, "color": "ffffff00", "curve": "stepped" },
					{ "time": 0.6, "color": "ffffff00" },
					{ "time": 0.9667, "color": "ffffffb4" },
					{ "time": 1.2, "color": "ffffff00" }
				]
			},
			"hua1": {
				"color": [
					{ "time": 0, "color": "ffffff00" },
					{ "time": 0.1667, "color": "ffffffff" }
				]
			},
			"hua2": {
				"color": [
					{ "time": 0, "color": "ffffff00" },
					{ "time": 0.1667, "color": "ffffffff" }
				]
			},
			"hua3": {
				"color": [
					{ "time": 0, "color": "ffffff00", "curve": "stepped" },
					{ "time": 0.2, "color": "ffffff00" },
					{ "time": 0.4667, "color": "ffffffff" }
				]
			},
			"hua4": {
				"color": [
					{ "time": 0, "color": "ffffff00", "curve": "stepped" },
					{ "time": 0.0667, "color": "ffffff00" },
					{ "time": 0.3667, "color": "ffffffff" }
				]
			},
			"hua5": {
				"color": [
					{ "time": 0, "color": "ffffff00", "curve": "stepped" },
					{ "time": 0.2333, "color": "ffffff00" },
					{ "time": 0.4667, "color": "ffffffff" }
				]
			},
			"hua6": {
				"color": [
					{ "time": 0, "color": "ffffff00", "curve": "stepped" },
					{ "time": 0.3333, "color": "ffffff00" },
					{ "time": 0.5667, "color": "ffffffff" }
				]
			},
			"hua7": {
				"color": [
					{ "time": 0, "color": "ffffff00", "curve": "stepped" },
					{ "time": 0.0667, "color": "ffffff00" },
					{ "time": 0.1667, "color": "ffffffff" }
				]
			},
			"hua8": {
				"color": [
					{ "time": 0, "color": "ffffff00", "curve": "stepped" },
					{ "time": 0.3, "color": "ffffff00" },
					{ "time": 0.4667, "color": "ffffffff" }
				]
			},
			"hua9": {
				"color": [
					{ "time": 0, "color": "ffffff00", "curve": "stepped" },
					{ "time": 0.7, "color": "ffffff00" },
					{ "time": 0.9, "color": "ffffffff" }
				]
			},
			"hua10": {
				"color": [
					{ "time": 0, "color": "ffffff00", "curve": "stepped" },
					{ "time": 0.4, "color": "ffffff00" },
					{ "time": 0.5333, "color": "ffffffff" }
				]
			},
			"hua11": {
				"color": [
					{ "time": 0, "color": "ffffff00", "curve": "stepped" },
					{ "time": 0.5, "color": "ffffff00" },
					{ "time": 0.6333, "color": "ffffffff" }
				]
			},
			"hua12": {
				"color": [
					{ "time": 0, "color": "ffffff00", "curve": "stepped" },
					{ "time": 0.2667, "color": "ffffff00" },
					{ "time": 0.5, "color": "ffffffff" }
				]
			},
			"hua13": {
				"color": [
					{ "time": 0, "color": "ffffff00", "curve": "stepped" },
					{ "time": 0.2333, "color": "ffffff00" },
					{ "time": 0.4333, "color": "ffffffff" }
				]
			},
			"hua14": {
				"color": [
					{ "time": 0, "color": "ffffff00", "curve": "stepped" },
					{ "time": 0.4, "color": "ffffff00" },
					{ "time": 0.6, "color": "ffffffff" }
				]
			},
			"hua15": {
				"color": [
					{ "time": 0, "color": "ffffff00", "curve": "stepped" },
					{ "time": 0.2333, "color": "ffffff00" },
					{ "time": 0.4667, "color": "ffffffff" }
				]
			},
			"hua16": {
				"color": [
					{ "time": 0, "color": "ffffff00", "curve": "stepped" },
					{ "time": 0.6, "color": "ffffff00" },
					{ "time": 0.6667, "color": "ffffffff" }
				]
			},
			"hua17": {
				"color": [
					{ "time": 0, "color": "ffffff00", "curve": "stepped" },
					{ "time": 0.6333, "color": "ffffff00" },
					{ "time": 0.8667, "color": "ffffffff" }
				]
			},
			"hua18": {
				"color": [
					{ "time": 0, "color": "ffffff00", "curve": "stepped" },
					{ "time": 0.6667, "color": "ffffff00" },
					{ "time": 0.9, "color": "ffffffff" }
				]
			},
			"hua_0": {
				"color": [
					{ "time": 0.4667, "color": "ffffffff" },
					{ "time": 0.6, "color": "ffffff00" }
				],
				"attachment": [
					{ "time": 0, "name": null },
					{ "time": 0.2, "name": "hua_0" },
					{ "time": 0.2333, "name": "hua_1" },
					{ "time": 0.2667, "name": "hua_2" },
					{ "time": 0.4, "name": "hua_3" },
					{ "time": 0.4667, "name": "hua_0" }
				]
			},
			"hua_1": {
				"color": [
					{ "time": 0.4667, "color": "ffffffff" },
					{ "time": 0.6, "color": "ffffff00" }
				],
				"attachment": [
					{ "time": 0, "name": null },
					{ "time": 0.2, "name": "hua_0" },
					{ "time": 0.2333, "name": "hua_1" },
					{ "time": 0.2667, "name": "hua_2" },
					{ "time": 0.4, "name": "hua_3" },
					{ "time": 0.4667, "name": "hua_0" }
				]
			},
			"hua_2": {
				"color": [
					{ "time": 0.5, "color": "ffffffff" },
					{ "time": 0.6333, "color": "ffffff00" }
				],
				"attachment": [
					{ "time": 0, "name": null },
					{ "time": 0.2333, "name": "hua_0" },
					{ "time": 0.2667, "name": "hua_1" },
					{ "time": 0.3, "name": "hua_2" },
					{ "time": 0.4333, "name": "hua_3" },
					{ "time": 0.5, "name": "hua_0" }
				]
			},
			"hua_3": {
				"color": [
					{ "time": 0.6, "color": "ffffffff" },
					{ "time": 0.7333, "color": "ffffff00" }
				],
				"attachment": [
					{ "time": 0, "name": null },
					{ "time": 0.3333, "name": "hua_0" },
					{ "time": 0.3667, "name": "hua_1" },
					{ "time": 0.4, "name": "hua_2" },
					{ "time": 0.5333, "name": "hua_3" },
					{ "time": 0.6, "name": "hua_0" }
				]
			},
			"hua_4": {
				"color": [
					{ "time": 0.6, "color": "ffffffff" },
					{ "time": 0.7333, "color": "ffffff00" }
				],
				"attachment": [
					{ "time": 0, "name": null },
					{ "time": 0.3333, "name": "hua_0" },
					{ "time": 0.3667, "name": "hua_1" },
					{ "time": 0.4, "name": "hua_2" },
					{ "time": 0.5333, "name": "hua_3" },
					{ "time": 0.6, "name": "hua_0" }
				]
			},
			"hua_5": {
				"color": [
					{ "time": 0.6, "color": "ffffffff" },
					{ "time": 0.7333, "color": "ffffff00" }
				],
				"attachment": [
					{ "time": 0, "name": null },
					{ "time": 0.3333, "name": "hua_0" },
					{ "time": 0.3667, "name": "hua_1" },
					{ "time": 0.4667, "name": "hua_2" },
					{ "time": 0.6, "name": "hua_3" },
					{ "time": 0.7, "name": "hua_0" }
				]
			},
			"hua_6": {
				"color": [
					{ "time": 0.6, "color": "ffffffff" },
					{ "time": 0.7333, "color": "ffffff00" }
				],
				"attachment": [
					{ "time": 0, "name": null },
					{ "time": 0.3333, "name": "hua_0" },
					{ "time": 0.3667, "name": "hua_1" },
					{ "time": 0.4667, "name": "hua_2" },
					{ "time": 0.6, "name": "hua_3" },
					{ "time": 0.7, "name": "hua_0" }
				]
			},
			"hua_7": {
				"color": [
					{ "time": 0.6667, "color": "ffffffff" },
					{ "time": 0.8667, "color": "ffffff00" }
				],
				"attachment": [
					{ "time": 0, "name": null },
					{ "time": 0.4, "name": "hua_0" },
					{ "time": 0.4667, "name": "hua_1" },
					{ "time": 0.5667, "name": "hua_2" },
					{ "time": 0.6667, "name": "hua_3" },
					{ "time": 0.8, "name": "hua_0" }
				]
			},
			"huaguduo": {
				"color": [
					{ "time": 0.4, "color": "ffffffff" },
					{ "time": 0.5333, "color": "ffffff00" }
				]
			},
			"yingying": {
				"color": [
					{ "time": 0, "color": "ffffff00", "curve": "stepped" },
					{ "time": 0.5333, "color": "ffffff00" },
					{ "time": 0.8333, "color": "ffffffff" }
				]
			}
		},
		"bones": {
			"tuan": {
				"scale": [
					{ "time": 0, "x": 1, "y": 1 },
					{ "time": 0.1667, "x": 1.072, "y": 1.163 },
					{ "time": 0.3333, "x": 1.077, "y": 0.937 },
					{ "time": 0.5667, "x": 1, "y": 1 }
				]
			},
			"hua1": {
				"rotate": [
					{ "time": 0.2333, "angle": 0 },
					{ "time": 0.5667, "angle": -6.46 },
					{ "time": 1.4, "angle": 0 }
				],
				"scale": [
					{ "time": 0, "x": 0.4, "y": 0.4, "curve": "stepped" },
					{ "time": 0.0333, "x": 0.4, "y": 0.4 },
					{ "time": 0.2333, "x": 1.1, "y": 1.1 },
					{ "time": 0.3667, "x": 1, "y": 1 }
				]
			},
			"hua2": {
				"rotate": [
					{ "time": 0.2333, "angle": 0 },
					{ "time": 0.5667, "angle": -9.21 },
					{ "time": 1.4, "angle": 0 }
				],
				"translate": [
					{ "time": 0, "x": -14.4, "y": 9.12 }
				],
				"scale": [
					{ "time": 0, "x": 0.5, "y": 0.5, "curve": "stepped" },
					{ "time": 0.1667, "x": 0.5, "y": 0.5 },
					{ "time": 0.3, "x": 1.1, "y": 1.1 },
					{ "time": 0.4333, "x": 1, "y": 1 }
				]
			},
			"hua7": {
				"scale": [
					{ "time": 0, "x": 0.705, "y": 0.63, "curve": "stepped" },
					{ "time": 0.1333, "x": 0.705, "y": 0.63 },
					{ "time": 0.3667, "x": 1.1, "y": 1.1 },
					{ "time": 0.5, "x": 1, "y": 1 }
				]
			},
			"hua8": {
				"rotate": [
					{ "time": 0.0667, "angle": 0 },
					{ "time": 0.5667, "angle": -6.95 },
					{ "time": 1.2, "angle": 7.08 },
					{ "time": 1.4667, "angle": 0 }
				]
			},
			"hua13": {
				"rotate": [
					{ "time": 0, "angle": 30.19, "curve": "stepped" },
					{ "time": 0.2333, "angle": 30.19 },
					{ "time": 0.6667, "angle": 0 },
					{ "time": 1, "angle": 4.86 },
					{ "time": 1.4667, "angle": 0 }
				],
				"translate": [
					{ "time": 0, "x": 8.94, "y": -5.15, "curve": "stepped" },
					{ "time": 0.2333, "x": 8.94, "y": -5.15 },
					{ "time": 0.6667, "x": 0, "y": 0 }
				],
				"scale": [
					{ "time": 0, "x": 0.845, "y": 0.845, "curve": "stepped" },
					{ "time": 0.2333, "x": 0.845, "y": 0.845 },
					{ "time": 0.6667, "x": 1, "y": 1 }
				]
			},
			"hua10": {
				"rotate": [
					{ "time": 0.5667, "angle": 0 },
					{ "time": 0.9333, "angle": -8.55 },
					{ "time": 1.4667, "angle": 0 }
				],
				"scale": [
					{ "time": 0, "x": 0.652, "y": 0.652, "curve": "stepped" },
					{ "time": 0.4333, "x": 0.652, "y": 0.652 },
					{ "time": 0.6667, "x": 1.05, "y": 1.05 },
					{ "time": 1.0333, "x": 1, "y": 1 }
				]
			},
			"hua22": {
				"scale": [
					{ "time": 0, "x": 0.022, "y": 1, "curve": "stepped" },
					{ "time": 0.5, "x": 0.022, "y": 1 },
					{ "time": 1, "x": 1, "y": 1 }
				]
			},
			"hua19": {
				"rotate": [
					{ "time": 0.3, "angle": 0 }
				]
			},
			"hua21": {
				"rotate": [
					{ "time": 0, "angle": -46.66, "curve": "stepped" },
					{ "time": 0.5667, "angle": -46.66 },
					{ "time": 1.0333, "angle": 0 }
				]
			},
			"hua14": {
				"rotate": [
					{ "time": 0.7333, "angle": 0 },
					{ "time": 1.0333, "angle": -5.01 },
					{ "time": 1.4, "angle": 0 }
				],
				"scale": [
					{ "time": 0, "x": 0.806, "y": 0.806, "curve": "stepped" },
					{ "time": 0.4333, "x": 0.806, "y": 0.806 },
					{ "time": 0.7667, "x": 1.2, "y": 1.2 },
					{ "time": 0.9667, "x": 1, "y": 1 }
				]
			},
			"hua3": {
				"rotate": [
					{ "time": 0.2, "angle": -32.19 },
					{ "time": 0.5667, "angle": 0 },
					{ "time": 1.0333, "angle": -3.25 },
					{ "time": 1.4, "angle": 0 }
				],
				"translate": [
					{ "time": 0, "x": -6.25, "y": 7.6, "curve": "stepped" },
					{ "time": 0.2, "x": -6.25, "y": 7.6 },
					{ "time": 0.3, "x": 0, "y": 0 }
				],
				"scale": [
					{ "time": 0, "x": 0.586, "y": 0.586, "curve": "stepped" },
					{ "time": 0.2, "x": 0.586, "y": 0.586 },
					{ "time": 0.4, "x": 1.1, "y": 1.1 },
					{ "time": 0.6, "x": 1, "y": 1 }
				]
			},
			"hua12": {
				"rotate": [
					{ "time": 0, "angle": 29.07, "curve": "stepped" },
					{ "time": 0.4, "angle": 29.07 },
					{ "time": 0.8, "angle": 0 }
				]
			},
			"hua23": {
				"rotate": [
					{ "time": 0, "angle": -36.91, "curve": "stepped" },
					{ "time": 0.4, "angle": -36.91 },
					{ "time": 0.6667, "angle": 0 }
				]
			},
			"hua15": {
				"translate": [
					{ "time": 0, "x": 15.49, "y": 19.01, "curve": "stepped" },
					{ "time": 0.2333, "x": 15.49, "y": 19.01 },
					{ "time": 0.4667, "x": 0, "y": 0 }
				]
			},
			"hua17": {
				"scale": [
					{ "time": 0, "x": 0.671, "y": 0.737, "curve": "stepped" },
					{ "time": 0.6333, "x": 0.671, "y": 0.737 },
					{ "time": 0.9333, "x": 1, "y": 1 }
				]
			},
			"hua18": {
				"scale": [
					{ "time": 0, "x": 0.4, "y": 0.4, "curve": "stepped" },
					{ "time": 0.6667, "x": 0.4, "y": 0.4 },
					{ "time": 0.9, "x": 1, "y": 1 }
				]
			},
			"hua11": {
				"scale": [
					{ "time": 0, "x": 0.4, "y": 0.4, "curve": "stepped" },
					{ "time": 0.5333, "x": 0.4, "y": 0.4 },
					{ "time": 0.8667, "x": 1, "y": 1 }
				]
			},
			"hua16": {
				"scale": [
					{ "time": 0, "x": 0.4, "y": 0.4, "curve": "stepped" },
					{ "time": 0.6, "x": 0.4, "y": 0.4 },
					{ "time": 0.9, "x": 1.1, "y": 1.1 },
					{ "time": 1.0667, "x": 1, "y": 1 }
				]
			},
			"hua24": {
				"rotate": [
					{ "time": 0.6333, "angle": 0 },
					{ "time": 1, "angle": -6.97 },
					{ "time": 1.4667, "angle": 0 }
				],
				"scale": [
					{ "time": 0.2333, "x": 0.4, "y": 0.4 },
					{ "time": 0.6333, "x": 1, "y": 1 }
				]
			},
			"hua5": {
				"rotate": [
					{ "time": 0.6, "angle": 0 },
					{ "time": 0.9333, "angle": 9.27 },
					{ "time": 1.4667, "angle": 0 }
				]
			},
			"Ye_0": {
				"translate": [
					{ "time": 0.2, "x": 0, "y": 0 },
					{ "time": 0.4, "x": 47.59, "y": -12.72 },
					{ "time": 0.6667, "x": 79.31, "y": -59.84 }
				]
			},
			"Ye_1": {
				"rotate": [
					{ "time": 0.1333, "angle": 0 },
					{ "time": 0.5333, "angle": 34.9 }
				],
				"translate": [
					{ "time": 0.2333, "x": -23.79, "y": -51.19 },
					{ "time": 0.4333, "x": 4.43, "y": -46.04 },
					{ "time": 0.7, "x": 40.56, "y": -111.03 }
				]
			},
			"Ye_2": {
				"translate": [
					{ "time": 0.4333, "x": -46.55, "y": -45.29 },
					{ "time": 0.8333, "x": -39.09, "y": -144.74 }
				]
			},
			"Ye_3": {
				"rotate": [
					{ "time": 0.1333, "angle": 0 },
					{ "time": 0.5333, "angle": 34.9 }
				],
				"translate": [
					{ "time": 0.2333, "x": -150.65, "y": 6.99 },
					{ "time": 0.4333, "x": -196.13, "y": -6.43 },
					{ "time": 0.6667, "x": -224.07, "y": -62.75 },
					{ "time": 0.8667, "x": -228.5, "y": -111.03 }
				]
			},
			"Ye_4": {
				"rotate": [
					{ "time": 0.1333, "angle": 0 },
					{ "time": 0.8333, "angle": 34.9 }
				],
				"translate": [
					{ "time": 0.2333, "x": -150.65, "y": 45.77 },
					{ "time": 0.3667, "x": -206.59, "y": 42.99 },
					{ "time": 0.8667, "x": -255.16, "y": -32.66 }
				]
			},
			"hua_0": {
				"translate": [
					{ "time": 0.2, "x": 0, "y": 0 },
					{ "time": 0.4333, "x": -49.33, "y": 2.65 },
					{ "time": 0.6, "x": -87.27, "y": -29.05 }
				]
			},
			"hua_1": {
				"translate": [
					{ "time": 0.2, "x": 147.73, "y": 0 },
					{ "time": 0.3667, "x": 176.7, "y": 2.97 },
					{ "time": 0.6, "x": 217.24, "y": -29.05 }
				]
			},
			"hua_2": {
				"translate": [
					{ "time": 0.2333, "x": 112.76, "y": -57.89 },
					{ "time": 0.6333, "x": 140.06, "y": -124.32 }
				]
			},
			"hua_3": {
				"translate": [
					{ "time": 0.3333, "x": 27.74, "y": -57.89 },
					{ "time": 0.7333, "x": 1.97, "y": -124.32 }
				]
			},
			"hua_4": {
				"translate": [
					{ "time": 0.3333, "x": 27.74, "y": 19.83 },
					{ "time": 0.7333, "x": -16.59, "y": -25.72 }
				]
			},
			"hua_5": {
				"translate": [
					{ "time": 0.3333, "x": 27.74, "y": 19.83 },
					{ "time": 0.7333, "x": 62.29, "y": -25.72 }
				]
			},
			"hua_6": {
				"translate": [
					{ "time": 0.3333, "x": -33.74, "y": 59.27 },
					{ "time": 0.4667, "x": 1.75, "y": 68.06 },
					{ "time": 0.7333, "x": 41.41, "y": 40.4 }
				]
			},
			"hua_7": {
				"translate": [
					{ "time": 0.4, "x": -106.82, "y": -108.93 },
					{ "time": 0.5667, "x": -128.94, "y": -120.63 },
					{ "time": 0.8667, "x": -134.91, "y": -162.6 }
				]
			}
		}
	},
	"start": {
		"slots": {
			"33_00000": {
				"color": [
					{ "time": 0, "color": "ffffff00" }
				]
			},
			"33_0": {
				"color": [
					{ "time": 0, "color": "ffffff00" }
				]
			},
			"33_1": {
				"color": [
					{ "time": 0, "color": "ffffff00" }
				]
			},
			"33_2": {
				"color": [
					{ "time": 0, "color": "ffffff00" }
				]
			},
			"33_3": {
				"color": [
					{ "time": 0, "color": "ffffff00" }
				]
			},
			"33_4": {
				"color": [
					{ "time": 0, "color": "ffffff00" }
				]
			},
			"33_5": {
				"color": [
					{ "time": 0, "color": "ffffff00" }
				]
			},
			"33_6": {
				"color": [
					{ "time": 0, "color": "ffffff00" }
				]
			},
			"33_7": {
				"color": [
					{ "time": 0, "color": "ffffff00" }
				]
			},
			"33_8": {
				"color": [
					{ "time": 0, "color": "ffffff00" }
				]
			},
			"Ye_0": {
				"attachment": [
					{ "time": 0, "name": null }
				]
			},
			"Ye_1": {
				"attachment": [
					{ "time": 0, "name": null }
				]
			},
			"Ye_2": {
				"attachment": [
					{ "time": 0, "name": null }
				]
			},
			"Ye_3": {
				"attachment": [
					{ "time": 0, "name": null }
				]
			},
			"Ye_4": {
				"attachment": [
					{ "time": 0, "name": null }
				]
			},
			"dot002_g": {
				"color": [
					{ "time": 0, "color": "ffffff00" }
				]
			},
			"dot002_g2": {
				"color": [
					{ "time": 0, "color": "ffffff00" }
				]
			},
			"dot002_g3": {
				"color": [
					{ "time": 0, "color": "ffffff00" }
				]
			},
			"dot002_g4": {
				"color": [
					{ "time": 0, "color": "ffffff00" }
				]
			},
			"dot002_g5": {
				"color": [
					{ "time": 0, "color": "ffffff00" }
				]
			},
			"dot002_g6": {
				"color": [
					{ "time": 0, "color": "ffffff00" }
				]
			},
			"dot002_g7": {
				"color": [
					{ "time": 0, "color": "ffffff00" }
				]
			},
			"dot002_g8": {
				"color": [
					{ "time": 0, "color": "ffffff00" }
				]
			},
			"glow01_w": {
				"color": [
					{ "time": 0, "color": "ffffff00" }
				]
			},
			"glow01_w2": {
				"color": [
					{ "time": 0, "color": "ffffff00" }
				]
			},
			"glow01_w3": {
				"color": [
					{ "time": 0, "color": "ffffff00" }
				]
			},
			"glow01_w4": {
				"color": [
					{ "time": 0, "color": "ffffff00" }
				]
			},
			"glow01_w5": {
				"color": [
					{ "time": 0, "color": "ffffff00" }
				]
			},
			"glow01_w6": {
				"color": [
					{ "time": 0, "color": "ffffff00" }
				]
			},
			"glow01_w7": {
				"color": [
					{ "time": 0, "color": "ffffff00" }
				]
			},
			"glow01_w8": {
				"color": [
					{ "time": 0, "color": "ffffff00" }
				]
			},
			"glow01_w9": {
				"color": [
					{ "time": 0, "color": "ffffff00" }
				]
			},
			"hua1": {
				"color": [
					{ "time": 0, "color": "ffffff00" }
				]
			},
			"hua2": {
				"color": [
					{ "time": 0, "color": "ffffff00" }
				]
			},
			"hua3": {
				"color": [
					{ "time": 0, "color": "ffffff00" }
				]
			},
			"hua4": {
				"color": [
					{ "time": 0, "color": "ffffff00" }
				]
			},
			"hua5": {
				"color": [
					{ "time": 0, "color": "ffffff00" }
				]
			},
			"hua6": {
				"color": [
					{ "time": 0, "color": "ffffff00" }
				]
			},
			"hua7": {
				"color": [
					{ "time": 0, "color": "ffffff00" }
				]
			},
			"hua8": {
				"color": [
					{ "time": 0, "color": "ffffff00" }
				]
			},
			"hua9": {
				"color": [
					{ "time": 0, "color": "ffffff00" }
				]
			},
			"hua10": {
				"color": [
					{ "time": 0, "color": "ffffff00" }
				]
			},
			"hua11": {
				"color": [
					{ "time": 0, "color": "ffffff00" }
				]
			},
			"hua12": {
				"color": [
					{ "time": 0, "color": "ffffff00" }
				]
			},
			"hua13": {
				"color": [
					{ "time": 0, "color": "ffffff00" }
				]
			},
			"hua14": {
				"color": [
					{ "time": 0, "color": "ffffff00" }
				]
			},
			"hua15": {
				"color": [
					{ "time": 0, "color": "ffffff00" }
				]
			},
			"hua16": {
				"color": [
					{ "time": 0, "color": "ffffff00" }
				]
			},
			"hua17": {
				"color": [
					{ "time": 0, "color": "ffffff00" }
				]
			},
			"hua18": {
				"color": [
					{ "time": 0, "color": "ffffff00" }
				]
			},
			"hua_0": {
				"attachment": [
					{ "time": 0, "name": null }
				]
			},
			"hua_1": {
				"attachment": [
					{ "time": 0, "name": null }
				]
			},
			"hua_2": {
				"attachment": [
					{ "time": 0, "name": null }
				]
			},
			"hua_3": {
				"attachment": [
					{ "time": 0, "name": null }
				]
			},
			"hua_4": {
				"attachment": [
					{ "time": 0, "name": null }
				]
			},
			"hua_5": {
				"attachment": [
					{ "time": 0, "name": null }
				]
			},
			"hua_6": {
				"attachment": [
					{ "time": 0, "name": null }
				]
			},
			"hua_7": {
				"attachment": [
					{ "time": 0, "name": null }
				]
			},
			"yingying": {
				"color": [
					{ "time": 0, "color": "ffffff00" }
				]
			}
		},
		"bones": {
			"tuan": {
				"scale": [
					{ "time": 0, "x": 1, "y": 1 }
				]
			},
			"hua1": {
				"scale": [
					{ "time": 0, "x": 0.4, "y": 0.4 }
				]
			},
			"hua2": {
				"translate": [
					{ "time": 0, "x": -14.4, "y": 9.12 }
				],
				"scale": [
					{ "time": 0, "x": 0.5, "y": 0.5 }
				]
			},
			"hua7": {
				"scale": [
					{ "time": 0, "x": 0.705, "y": 0.63 }
				]
			},
			"hua13": {
				"rotate": [
					{ "time": 0, "angle": 30.19 }
				],
				"translate": [
					{ "time": 0, "x": 8.94, "y": -5.15 }
				],
				"scale": [
					{ "time": 0, "x": 0.845, "y": 0.845 }
				]
			},
			"hua10": {
				"scale": [
					{ "time": 0, "x": 0.652, "y": 0.652 }
				]
			},
			"hua22": {
				"scale": [
					{ "time": 0, "x": 0.022, "y": 1 }
				]
			},
			"hua21": {
				"rotate": [
					{ "time": 0, "angle": -46.66 }
				]
			},
			"hua14": {
				"scale": [
					{ "time": 0, "x": 0.806, "y": 0.806 }
				]
			},
			"hua3": {
				"translate": [
					{ "time": 0, "x": -6.25, "y": 7.6 }
				],
				"scale": [
					{ "time": 0, "x": 0.586, "y": 0.586 }
				]
			},
			"hua12": {
				"rotate": [
					{ "time": 0, "angle": 29.07 }
				]
			},
			"hua23": {
				"rotate": [
					{ "time": 0, "angle": -36.91 }
				]
			},
			"hua15": {
				"translate": [
					{ "time": 0, "x": 15.49, "y": 19.01 }
				]
			},
			"hua17": {
				"scale": [
					{ "time": 0, "x": 0.671, "y": 0.737 }
				]
			},
			"hua18": {
				"scale": [
					{ "time": 0, "x": 0.4, "y": 0.4 }
				]
			},
			"hua11": {
				"scale": [
					{ "time": 0, "x": 0.4, "y": 0.4 }
				]
			},
			"hua16": {
				"scale": [
					{ "time": 0, "x": 0.4, "y": 0.4 }
				]
			}
		}
	}
}
}