%YAML 1.1
%TAG !u! tag:unity3d.com,2011:
--- !u!1045 &1
EditorBuildSettings:
  m_ObjectHideFlags: 0
  serializedVersion: 2
  m_Scenes:
  - enabled: 1
    path: Assets/_Scenes/MainLoading.unity
    guid: 9bf6e6d257455524da62dd3236fef3a0
  - enabled: 1
    path: Assets/_Scenes/main.unity
    guid: 81d467ff73fa4414db3636ed6c112888
  m_configObjects: {}
