%YAML 1.1
%TAG !u! tag:unity3d.com,2011:
--- !u!74 &7400000
AnimationClip:
  m_ObjectHideFlags: 0
  m_PrefabParentObject: {fileID: 0}
  m_PrefabInternal: {fileID: 0}
  m_Name: "Everyday"
  serializedVersion: 6
  m_Legacy: 0
  m_Compressed: 0
  m_UseHighQualityCurve: 1
  m_RotationCurves:
  m_CompressedRotationCurves: []
  m_EulerCurves:
  m_PositionCurves:
  m_ScaleCurves:
  m_FloatCurves:
  - curve:
      serializedVersion: 2
      m_Curve:
      - serializedVersion: 2
        time: 0
        value: 641.9
        inSlope: -293.9
        outSlope: -293.9
        tangentMode: 0
      - serializedVersion: 2
        time: 2
        value: 54.1
        inSlope: 0.6000061
        outSlope: 0.6000061
        tangentMode: 0
      - serializedVersion: 2
        time: 2.5
        value: 54.4
        inSlope: 294.15
        outSlope: 294.15
        tangentMode: 0
      - serializedVersion: 2
        time: 4.5
        value: 642.7
        inSlope: -1
        outSlope: -1
        tangentMode: 0
      - serializedVersion: 2
        time: 5
        value: 642.2
        inSlope: 0
        outSlope: 0
        tangentMode: 0
      m_PreInfinity: 2
      m_PostInfinity: 2
      m_RotationOrder: 4
    attribute: m_AnchoredPosition.x
    path: EveryDay01
    classID: 224
    script: {fileID: 0}
  - curve:
      serializedVersion: 2
      m_Curve:
      - serializedVersion: 2
        time: 0
        value: 54.2
        inSlope: 294.6
        outSlope: 294.6
        tangentMode: 0
      - serializedVersion: 2
        time: 2
        value: 643.4
        inSlope: -3.200073
        outSlope: -3.200073
        tangentMode: 0
      - serializedVersion: 2
        time: 2.5
        value: 641.8
        inSlope: -293.85
        outSlope: -293.85
        tangentMode: 0
      - serializedVersion: 2
        time: 4.5
        value: 54.1
        inSlope: 0.4000015
        outSlope: 0.4000015
        tangentMode: 0
      - serializedVersion: 2
        time: 5
        value: 54.3
        inSlope: 0
        outSlope: 0
        tangentMode: 0
      m_PreInfinity: 2
      m_PostInfinity: 2
      m_RotationOrder: 4
    attribute: m_AnchoredPosition.x
    path: EveryDay02
    classID: 224
    script: {fileID: 0}
  - curve:
      serializedVersion: 2
      m_Curve:
      - serializedVersion: 2
        time: 0
        value: -6.8
        inSlope: 0.6000001
        outSlope: 0.6000001
        tangentMode: 0
      - serializedVersion: 2
        time: 2
        value: -5.6
        inSlope: -217
        outSlope: -217
        tangentMode: 0
      - serializedVersion: 2
        time: 2.5
        value: -114.1
        inSlope: -0.04999924
        outSlope: -0.04999924
        tangentMode: 0
      - serializedVersion: 2
        time: 4.5
        value: -114.2
        inSlope: 215.2
        outSlope: 215.2
        tangentMode: 0
      - serializedVersion: 2
        time: 5
        value: -6.6
        inSlope: 0
        outSlope: 0
        tangentMode: 0
      m_PreInfinity: 2
      m_PostInfinity: 2
      m_RotationOrder: 4
    attribute: m_AnchoredPosition.y
    path: EveryDay02
    classID: 224
    script: {fileID: 0}
  - curve:
      serializedVersion: 2
      m_Curve:
      - serializedVersion: 2
        time: 0
        value: -114.1
        inSlope: -0.04999924
        outSlope: -0.04999924
        tangentMode: 0
      - serializedVersion: 2
        time: 2
        value: -114.2
        inSlope: 215.6
        outSlope: 215.6
        tangentMode: 0
      - serializedVersion: 2
        time: 2.5
        value: -6.4
        inSlope: 0.3
        outSlope: 0.3
        tangentMode: 0
      - serializedVersion: 2
        time: 4.5
        value: -5.8
        inSlope: -217.2
        outSlope: -217.2
        tangentMode: 0
      - serializedVersion: 2
        time: 5
        value: -114.4
        inSlope: 0
        outSlope: 0
        tangentMode: 0
      m_PreInfinity: 2
      m_PostInfinity: 2
      m_RotationOrder: 4
    attribute: m_AnchoredPosition.y
    path: EveryDay01
    classID: 224
    script: {fileID: 0}
  m_PPtrCurves:
  m_SampleRate: 60
  m_WrapMode: 0
  m_Bounds:
    m_Center: {x: 0, y: 0, z: 0}
    m_Extent: {x: 0, y: 0, z: 0}
  m_MuscleClipSize: 3112
  m_MuscleClip:
    serializedVersion: 3
    m_DeltaPose:
      m_RootX:
        t: {x: 0, y: 0, z: 0}
        q: {x: 0, y: 0, z: 0, w: 1}
        s: {x: 1, y: 1, z: 1}
      m_LookAtPosition: {x: 0, y: 0, z: 0}
      m_LookAtWeight: {x: 0, y: 0, z: 0, w: 0}
      m_GoalArray:
      - m_X:
          t: {x: 0, y: 0, z: 0}
          q: {x: 0, y: 0, z: 0, w: 1}
          s: {x: 1, y: 1, z: 1}
          m_Weight: 
          m_WeightR: 0
          m_HintT: {x: 0, y: 0, z: 0}
          m_HintWeightT: 0
      - m_X:
          t: {x: 0, y: 0, z: 0}
          q: {x: 0, y: 0, z: 0, w: 1}
          s: {x: 1, y: 1, z: 1}
          m_Weight: 
          m_WeightR: 0
          m_HintT: {x: 0, y: 0, z: 0}
          m_HintWeightT: 0
      - m_X:
          t: {x: 0, y: 0, z: 0}
          q: {x: 0, y: 0, z: 0, w: 1}
          s: {x: 1, y: 1, z: 1}
          m_Weight: 
          m_WeightR: 0
          m_HintT: {x: 0, y: 0, z: 0}
          m_HintWeightT: 0
      - m_X:
          t: {x: 0, y: 0, z: 0}
          q: {x: 0, y: 0, z: 0, w: 1}
          s: {x: 1, y: 1, z: 1}
          m_Weight: 
          m_WeightR: 0
          m_HintT: {x: 0, y: 0, z: 0}
          m_HintWeightT: 0
      m_LeftHandPose:
        m_GrabX:
          t: {x: 0, y: 0, z: 0}
          q: {x: 0, y: 0, z: 0, w: 1}
          s: {x: 1, y: 1, z: 1}
        m_DoFArray:
        - 0
        - 0
        - 0
        - 0
        - 0
        - 0
        - 0
        - 0
        - 0
        - 0
        - 0
        - 0
        - 0
        - 0
        - 0
        - 0
        - 0
        - 0
        - 0
        - 0
        m_Override: 0
        m_CloseOpen: 0
        m_InOut: 0
        m_Grab: 0
      m_RightHandPose:
        m_GrabX:
          t: {x: 0, y: 0, z: 0}
          q: {x: 0, y: 0, z: 0, w: 1}
          s: {x: 1, y: 1, z: 1}
        m_DoFArray:
        - 0
        - 0
        - 0
        - 0
        - 0
        - 0
        - 0
        - 0
        - 0
        - 0
        - 0
        - 0
        - 0
        - 0
        - 0
        - 0
        - 0
        - 0
        - 0
        - 0
        m_Override: 0
        m_CloseOpen: 0
        m_InOut: 0
        m_Grab: 0
      m_DoFArray:
        - 0
        - 0
        - 0
        - 0
        - 0
        - 0
        - 0
        - 0
        - 0
        - 0
        - 0
        - 0
        - 0
        - 0
        - 0
        - 0
        - 0
        - 0
        - 0
        - 0
        - 0
        - 0
        - 0
        - 0
        - 0
        - 0
        - 0
        - 0
        - 0
        - 0
        - 0
        - 0
        - 0
        - 0
        - 0
        - 0
        - 0
        - 0
        - 0
        - 0
        - 0
        - 0
        - 0
        - 0
        - 0
        - 0
        - 0
        - 0
        - 0
        - 0
        - 0
        - 0
        - 0
        - 0
        - 0
      m_TDoFArray:
      - x: 0
        y: 0
        z: 0
      - x: 0
        y: 0
        z: 0
      - x: 0
        y: 0
        z: 0
      - x: 0
        y: 0
        z: 0
      - x: 0
        y: 0
        z: 0
      - x: 0
        y: 0
        z: 0
      - x: 0
        y: 0
        z: 0
      - x: 0
        y: 0
        z: 0
      - x: 0
        y: 0
        z: 0
      - x: 0
        y: 0
        z: 0
      - x: 0
        y: 0
        z: 0
      - x: 0
        y: 0
        z: 0
      - x: 0
        y: 0
        z: 0
      - x: 0
        y: 0
        z: 0
      - x: 0
        y: 0
        z: 0
      - x: 0
        y: 0
        z: 0
      - x: 0
        y: 0
        z: 0
      - x: 0
        y: 0
        z: 0
      - x: 0
        y: 0
        z: 0
      - x: 0
        y: 0
        z: 0
      - x: 0
        y: 0
        z: 0
    m_StartX:
      t: {x: 0, y: 0, z: 0}
      q: {x: 0, y: 0, z: 0, w: 1}
      s: {x: 1, y: 1, z: 1}
    m_StopX:
      t: {x: 0, y: 0, z: 0}
      q: {x: 0, y: 0, z: 0, w: 1}
      s: {x: 1, y: 1, z: 1}
    m_LeftFootStartX:
      t: {x: 0, y: 0, z: 0}
      q: {x: 0, y: 0, z: 0, w: 1}
      s: {x: 1, y: 1, z: 1}
    m_RightFootStartX:
      t: {x: 0, y: 0, z: 0}
      q: {x: 0, y: 0, z: 0, w: 1}
      s: {x: 1, y: 1, z: 1}
    m_AverageSpeed: {x: 0, y: 0, z: 0}
  m_ClipBindingConstant:
    genericBindings:
    - serializedVersion: 2
      path: 740304608
      attribute: 1460864421
      script: {fileID: 0}
      typeID: 224
      customType: 28
      isPPtrCurve: 0
    - serializedVersion: 2
      path: 3039393626
      attribute: 1460864421
      script: {fileID: 0}
      typeID: 224
      customType: 28
      isPPtrCurve: 0
    - serializedVersion: 2
      path: 3039393626
      attribute: 538195251
      script: {fileID: 0}
      typeID: 224
      customType: 28
      isPPtrCurve: 0
    - serializedVersion: 2
      path: 740304608
      attribute: 538195251
      script: {fileID: 0}
      typeID: 224
      customType: 28
      isPPtrCurve: 0
    pptrCurveMapping:
  m_AnimationClipSettings:
    serializedVersion: 2
    m_AdditiveReferencePoseClip: {fileID: 0}
    m_AdditiveReferencePoseTime: 
    m_StartTime: 0
    m_StopTime: 5
    m_OrientationOffsetY: 0
    m_Level: 0
    m_CycleOffset: 0
    m_HasAdditiveReferencePose: 
    m_LoopTime: 1
    m_LoopBlend: 0
    m_LoopBlendOrientation: 0
    m_LoopBlendPositionY: 0
    m_LoopBlendPositionXZ: 0
    m_KeepOriginalOrientation: 0
    m_KeepOriginalPositionY: 1
    m_KeepOriginalPositionXZ: 0
    m_HeightFromFeet: 0
    m_Mirror: 0
    m_HasGenericRootTransform: 0
    m_HasMotionFloatCurves: 0
    m_GenerateMotionCurves: 0
  m_EditorCurves:
  - curve:
      serializedVersion: 2
      m_Curve:
      - serializedVersion: 2
        time: 0
        value: 641.9
        inSlope: -293.9
        outSlope: -293.9
        tangentMode: 0
      - serializedVersion: 2
        time: 2
        value: 54.1
        inSlope: 0.6000061
        outSlope: 0.6000061
        tangentMode: 0
      - serializedVersion: 2
        time: 2.5
        value: 54.4
        inSlope: 294.15
        outSlope: 294.15
        tangentMode: 0
      - serializedVersion: 2
        time: 4.5
        value: 642.7
        inSlope: -1
        outSlope: -1
        tangentMode: 0
      - serializedVersion: 2
        time: 5
        value: 642.2
        inSlope: 0
        outSlope: 0
        tangentMode: 0
      m_PreInfinity: 2
      m_PostInfinity: 2
      m_RotationOrder: 4
    attribute: m_AnchoredPosition.x
    path: EveryDay01
    classID: 224
    script: {fileID: 0}
  - curve:
      serializedVersion: 2
      m_Curve:
      - serializedVersion: 2
        time: 0
        value: 54.2
        inSlope: 294.6
        outSlope: 294.6
        tangentMode: 0
      - serializedVersion: 2
        time: 2
        value: 643.4
        inSlope: -3.200073
        outSlope: -3.200073
        tangentMode: 0
      - serializedVersion: 2
        time: 2.5
        value: 641.8
        inSlope: -293.85
        outSlope: -293.85
        tangentMode: 0
      - serializedVersion: 2
        time: 4.5
        value: 54.1
        inSlope: 0.4000015
        outSlope: 0.4000015
        tangentMode: 0
      - serializedVersion: 2
        time: 5
        value: 54.3
        inSlope: 0
        outSlope: 0
        tangentMode: 0
      m_PreInfinity: 2
      m_PostInfinity: 2
      m_RotationOrder: 4
    attribute: m_AnchoredPosition.x
    path: EveryDay02
    classID: 224
    script: {fileID: 0}
  - curve:
      serializedVersion: 2
      m_Curve:
      - serializedVersion: 2
        time: 0
        value: -6.8
        inSlope: 0.6000001
        outSlope: 0.6000001
        tangentMode: 0
      - serializedVersion: 2
        time: 2
        value: -5.6
        inSlope: -217
        outSlope: -217
        tangentMode: 0
      - serializedVersion: 2
        time: 2.5
        value: -114.1
        inSlope: -0.04999924
        outSlope: -0.04999924
        tangentMode: 0
      - serializedVersion: 2
        time: 4.5
        value: -114.2
        inSlope: 215.2
        outSlope: 215.2
        tangentMode: 0
      - serializedVersion: 2
        time: 5
        value: -6.6
        inSlope: 0
        outSlope: 0
        tangentMode: 0
      m_PreInfinity: 2
      m_PostInfinity: 2
      m_RotationOrder: 4
    attribute: m_AnchoredPosition.y
    path: EveryDay02
    classID: 224
    script: {fileID: 0}
  - curve:
      serializedVersion: 2
      m_Curve:
      - serializedVersion: 2
        time: 0
        value: -114.1
        inSlope: -0.04999924
        outSlope: -0.04999924
        tangentMode: 0
      - serializedVersion: 2
        time: 2
        value: -114.2
        inSlope: 215.6
        outSlope: 215.6
        tangentMode: 0
      - serializedVersion: 2
        time: 2.5
        value: -6.4
        inSlope: 0.3
        outSlope: 0.3
        tangentMode: 0
      - serializedVersion: 2
        time: 4.5
        value: -5.8
        inSlope: -217.2
        outSlope: -217.2
        tangentMode: 0
      - serializedVersion: 2
        time: 5
        value: -114.4
        inSlope: 0
        outSlope: 0
        tangentMode: 0
      m_PreInfinity: 2
      m_PostInfinity: 2
      m_RotationOrder: 4
    attribute: m_AnchoredPosition.y
    path: EveryDay01
    classID: 224
    script: {fileID: 0}
  m_Events:
