%YAML 1.1
%TAG !u! tag:unity3d.com,2011:
--- !u!74 &7400000
AnimationClip:
  m_ObjectHideFlags: 0
  m_PrefabParentObject: {fileID: 0}
  m_PrefabInternal: {fileID: 0}
  m_Name: "pigjinbifly"
  serializedVersion: 6
  m_Legacy: 0
  m_Compressed: 0
  m_UseHighQualityCurve: 1
  m_RotationCurves:
  m_CompressedRotationCurves: []
  m_EulerCurves:
  m_PositionCurves:
  m_ScaleCurves:
  - curve:
      serializedVersion: 2
      m_Curve:
      - serializedVersion: 3
        time: 0
        value: {x: 0.2, y: 0.2, z: 2}
        inSlope: {x: 0, y: 0, z: 0}
        outSlope: {x: 0, y: 0, z: 0}
        weightedMode: 0
        inWeight: { x: 0.3333333, y: 0.3333333, z: 0.3333333}
        outWeight: { x: 0.3333333, y: 0.3333333, z: 0.3333333}
      - serializedVersion: 3
        time: 0.2166667
        value: {x: 1.2, y: 1.2, z: 1.2}
        inSlope: {x: 0, y: 0, z: -1.846154}
        outSlope: {x: 0, y: 0, z: -1.846154}
        weightedMode: 0
        inWeight: { x: 0.3333333, y: 0.3333333, z: 0.3333333}
        outWeight: { x: 0.3333333, y: 0.3333333, z: 0.3333333}
      - serializedVersion: 3
        time: 0.65
        value: {x: 0.8, y: 0.8, z: 0.8}
        inSlope: {x: 0, y: 0, z: 0}
        outSlope: {x: 0, y: 0, z: 0}
        weightedMode: 0
        inWeight: { x: 0.3333333, y: 0.3333333, z: 0.3333333}
        outWeight: { x: 0.3333333, y: 0.3333333, z: 0.3333333}
      - serializedVersion: 3
        time: 1.016667
        value: {x: 1.1, y: 1.1, z: 1.1}
        inSlope: {x: 0, y: 0, z: 0}
        outSlope: {x: 0, y: 0, z: 0}
        weightedMode: 0
        inWeight: { x: 0.3333333, y: 0.3333333, z: 0.3333333}
        outWeight: { x: 0.3333333, y: 0.3333333, z: 0.3333333}
      m_PreInfinity: 2
      m_PostInfinity: 2
      m_RotationOrder: 4
    path: 
  m_FloatCurves:
  - curve:
      serializedVersion: 2
      m_Curve:
      - serializedVersion: 2
        time: 0
        value: 408
        inSlope: 0
        outSlope: 0
        tangentMode: 0
      - serializedVersion: 2
        time: 0.06666667
        value: 408
        inSlope: 0
        outSlope: 0
        tangentMode: 0
      - serializedVersion: 2
        time: 0.3166667
        value: 385
        inSlope: -108.4615
        outSlope: -108.4615
        tangentMode: 0
      - serializedVersion: 2
        time: 0.5
        value: 361
        inSlope: -288
        outSlope: -288
        tangentMode: 0
      - serializedVersion: 2
        time: 0.65
        value: 221
        inSlope: 0
        outSlope: 0
        tangentMode: 0
      - serializedVersion: 2
        time: 0.6666667
        value: 259
        inSlope: 414.5454
        outSlope: 414.5454
        tangentMode: 0
      - serializedVersion: 2
        time: 1.016667
        value: 481
        inSlope: 0
        outSlope: 0
        tangentMode: 0
      m_PreInfinity: 2
      m_PostInfinity: 2
      m_RotationOrder: 4
    attribute: m_AnchoredPosition.y
    path: 
    classID: 224
    script: {fileID: 0}
  - curve:
      serializedVersion: 2
      m_Curve:
      - serializedVersion: 2
        time: 0
        value: 224
        inSlope: 0
        outSlope: 0
        tangentMode: 0
      - serializedVersion: 2
        time: 0.06666667
        value: 224
        inSlope: 0
        outSlope: 0
        tangentMode: 0
      - serializedVersion: 2
        time: 0.3166667
        value: 98
        inSlope: -496.1538
        outSlope: -496.1538
        tangentMode: 0
      - serializedVersion: 2
        time: 0.5
        value: 9
        inSlope: -411
        outSlope: -411
        tangentMode: 0
      - serializedVersion: 2
        time: 0.65
        value: -39
        inSlope: 0
        outSlope: 0
        tangentMode: 0
      - serializedVersion: 2
        time: 0.6666667
        value: -39
        inSlope: 0
        outSlope: 0
        tangentMode: 0
      - serializedVersion: 2
        time: 1.016667
        value: -444
        inSlope: 0
        outSlope: 0
        tangentMode: 0
      m_PreInfinity: 2
      m_PostInfinity: 2
      m_RotationOrder: 4
    attribute: m_AnchoredPosition.x
    path: 
    classID: 224
    script: {fileID: 0}
  m_PPtrCurves:
  m_SampleRate: 60
  m_WrapMode: 0
  m_Bounds:
    m_Center: {x: 0, y: 0, z: 0}
    m_Extent: {x: 0, y: 0, z: 0}
  m_MuscleClipSize: 3284
  m_MuscleClip:
    serializedVersion: 3
    m_DeltaPose:
      m_RootX:
        t: {x: 0, y: 0, z: 0}
        q: {x: 0, y: 0, z: 0, w: 1}
        s: {x: 1, y: 1, z: 1}
      m_LookAtPosition: {x: 0, y: 0, z: 0}
      m_LookAtWeight: {x: 0, y: 0, z: 0, w: 0}
      m_GoalArray:
      - m_X:
          t: {x: 0, y: 0, z: 0}
          q: {x: 0, y: 0, z: 0, w: 1}
          s: {x: 1, y: 1, z: 1}
          m_Weight: 
          m_WeightR: 0
          m_HintT: {x: 0, y: 0, z: 0}
          m_HintWeightT: 0
      - m_X:
          t: {x: 0, y: 0, z: 0}
          q: {x: 0, y: 0, z: 0, w: 1}
          s: {x: 1, y: 1, z: 1}
          m_Weight: 
          m_WeightR: 0
          m_HintT: {x: 0, y: 0, z: 0}
          m_HintWeightT: 0
      - m_X:
          t: {x: 0, y: 0, z: 0}
          q: {x: 0, y: 0, z: 0, w: 1}
          s: {x: 1, y: 1, z: 1}
          m_Weight: 
          m_WeightR: 0
          m_HintT: {x: 0, y: 0, z: 0}
          m_HintWeightT: 0
      - m_X:
          t: {x: 0, y: 0, z: 0}
          q: {x: 0, y: 0, z: 0, w: 1}
          s: {x: 1, y: 1, z: 1}
          m_Weight: 
          m_WeightR: 0
          m_HintT: {x: 0, y: 0, z: 0}
          m_HintWeightT: 0
      m_LeftHandPose:
        m_GrabX:
          t: {x: 0, y: 0, z: 0}
          q: {x: 0, y: 0, z: 0, w: 1}
          s: {x: 1, y: 1, z: 1}
        m_DoFArray:
        - 0
        - 0
        - 0
        - 0
        - 0
        - 0
        - 0
        - 0
        - 0
        - 0
        - 0
        - 0
        - 0
        - 0
        - 0
        - 0
        - 0
        - 0
        - 0
        - 0
        m_Override: 0
        m_CloseOpen: 0
        m_InOut: 0
        m_Grab: 0
      m_RightHandPose:
        m_GrabX:
          t: {x: 0, y: 0, z: 0}
          q: {x: 0, y: 0, z: 0, w: 1}
          s: {x: 1, y: 1, z: 1}
        m_DoFArray:
        - 0
        - 0
        - 0
        - 0
        - 0
        - 0
        - 0
        - 0
        - 0
        - 0
        - 0
        - 0
        - 0
        - 0
        - 0
        - 0
        - 0
        - 0
        - 0
        - 0
        m_Override: 0
        m_CloseOpen: 0
        m_InOut: 0
        m_Grab: 0
      m_DoFArray:
        - 0
        - 0
        - 0
        - 0
        - 0
        - 0
        - 0
        - 0
        - 0
        - 0
        - 0
        - 0
        - 0
        - 0
        - 0
        - 0
        - 0
        - 0
        - 0
        - 0
        - 0
        - 0
        - 0
        - 0
        - 0
        - 0
        - 0
        - 0
        - 0
        - 0
        - 0
        - 0
        - 0
        - 0
        - 0
        - 0
        - 0
        - 0
        - 0
        - 0
        - 0
        - 0
        - 0
        - 0
        - 0
        - 0
        - 0
        - 0
        - 0
        - 0
        - 0
        - 0
        - 0
        - 0
        - 0
      m_TDoFArray:
      - x: 0
        y: 0
        z: 0
      - x: 0
        y: 0
        z: 0
      - x: 0
        y: 0
        z: 0
      - x: 0
        y: 0
        z: 0
      - x: 0
        y: 0
        z: 0
      - x: 0
        y: 0
        z: 0
      - x: 0
        y: 0
        z: 0
      - x: 0
        y: 0
        z: 0
      - x: 0
        y: 0
        z: 0
      - x: 0
        y: 0
        z: 0
      - x: 0
        y: 0
        z: 0
      - x: 0
        y: 0
        z: 0
      - x: 0
        y: 0
        z: 0
      - x: 0
        y: 0
        z: 0
      - x: 0
        y: 0
        z: 0
      - x: 0
        y: 0
        z: 0
      - x: 0
        y: 0
        z: 0
      - x: 0
        y: 0
        z: 0
      - x: 0
        y: 0
        z: 0
      - x: 0
        y: 0
        z: 0
      - x: 0
        y: 0
        z: 0
    m_StartX:
      t: {x: 0, y: 0, z: 0}
      q: {x: 0, y: 0, z: 0, w: 1}
      s: {x: 1, y: 1, z: 1}
    m_StopX:
      t: {x: 0, y: 0, z: 0}
      q: {x: 0, y: 0, z: 0, w: 1}
      s: {x: 1, y: 1, z: 1}
    m_LeftFootStartX:
      t: {x: 0, y: 0, z: 0}
      q: {x: 0, y: 0, z: 0, w: 1}
      s: {x: 1, y: 1, z: 1}
    m_RightFootStartX:
      t: {x: 0, y: 0, z: 0}
      q: {x: 0, y: 0, z: 0, w: 1}
      s: {x: 1, y: 1, z: 1}
    m_AverageSpeed: {x: 0, y: 0, z: 0}
  m_ClipBindingConstant:
    genericBindings:
    - serializedVersion: 2
      path: 0
      attribute: 3
      script: {fileID: 0}
      typeID: 4
      customType: 0
      isPPtrCurve: 0
    - serializedVersion: 2
      path: 0
      attribute: 538195251
      script: {fileID: 0}
      typeID: 224
      customType: 28
      isPPtrCurve: 0
    - serializedVersion: 2
      path: 0
      attribute: 1460864421
      script: {fileID: 0}
      typeID: 224
      customType: 28
      isPPtrCurve: 0
    pptrCurveMapping:
  m_AnimationClipSettings:
    serializedVersion: 2
    m_AdditiveReferencePoseClip: {fileID: 0}
    m_AdditiveReferencePoseTime: 
    m_StartTime: 0
    m_StopTime: 1.016667
    m_OrientationOffsetY: 0
    m_Level: 0
    m_CycleOffset: 0
    m_HasAdditiveReferencePose: 
    m_LoopTime: 1
    m_LoopBlend: 0
    m_LoopBlendOrientation: 0
    m_LoopBlendPositionY: 0
    m_LoopBlendPositionXZ: 0
    m_KeepOriginalOrientation: 0
    m_KeepOriginalPositionY: 1
    m_KeepOriginalPositionXZ: 0
    m_HeightFromFeet: 0
    m_Mirror: 0
    m_HasGenericRootTransform: 0
    m_HasMotionFloatCurves: 0
    m_GenerateMotionCurves: 0
  m_EditorCurves:
  - curve:
      serializedVersion: 2
      m_Curve:
      - serializedVersion: 2
        time: 0
        value: 0.2
        inSlope: 0
        outSlope: 0
        tangentMode: 0
      - serializedVersion: 2
        time: 0.2166667
        value: 1.2
        inSlope: 0
        outSlope: 0
        tangentMode: 0
      - serializedVersion: 2
        time: 0.65
        value: 0.8
        inSlope: 0
        outSlope: 0
        tangentMode: 0
      - serializedVersion: 2
        time: 1.016667
        value: 1.1
        inSlope: 0
        outSlope: 0
        tangentMode: 0
      m_PreInfinity: 2
      m_PostInfinity: 2
      m_RotationOrder: 4
    attribute: m_LocalScale.x
    path: 
    classID: 4
    script: {fileID: 0}
  - curve:
      serializedVersion: 2
      m_Curve:
      - serializedVersion: 2
        time: 0
        value: 0.2
        inSlope: 0
        outSlope: 0
        tangentMode: 0
      - serializedVersion: 2
        time: 0.2166667
        value: 1.2
        inSlope: 0
        outSlope: 0
        tangentMode: 0
      - serializedVersion: 2
        time: 0.65
        value: 0.8
        inSlope: 0
        outSlope: 0
        tangentMode: 0
      - serializedVersion: 2
        time: 1.016667
        value: 1.1
        inSlope: 0
        outSlope: 0
        tangentMode: 0
      m_PreInfinity: 2
      m_PostInfinity: 2
      m_RotationOrder: 4
    attribute: m_LocalScale.y
    path: 
    classID: 4
    script: {fileID: 0}
  - curve:
      serializedVersion: 2
      m_Curve:
      - serializedVersion: 2
        time: 0
        value: 2
        inSlope: 0
        outSlope: 0
        tangentMode: 0
      - serializedVersion: 2
        time: 0.2166667
        value: 1.2
        inSlope: -1.846154
        outSlope: -1.846154
        tangentMode: 0
      - serializedVersion: 2
        time: 0.65
        value: 0.8
        inSlope: 0
        outSlope: 0
        tangentMode: 0
      - serializedVersion: 2
        time: 1.016667
        value: 1.1
        inSlope: 0
        outSlope: 0
        tangentMode: 0
      m_PreInfinity: 2
      m_PostInfinity: 2
      m_RotationOrder: 4
    attribute: m_LocalScale.z
    path: 
    classID: 4
    script: {fileID: 0}
  - curve:
      serializedVersion: 2
      m_Curve:
      - serializedVersion: 2
        time: 0
        value: 408
        inSlope: 0
        outSlope: 0
        tangentMode: 0
      - serializedVersion: 2
        time: 0.06666667
        value: 408
        inSlope: 0
        outSlope: 0
        tangentMode: 0
      - serializedVersion: 2
        time: 0.3166667
        value: 385
        inSlope: -108.4615
        outSlope: -108.4615
        tangentMode: 0
      - serializedVersion: 2
        time: 0.5
        value: 361
        inSlope: -288
        outSlope: -288
        tangentMode: 0
      - serializedVersion: 2
        time: 0.65
        value: 221
        inSlope: 0
        outSlope: 0
        tangentMode: 0
      - serializedVersion: 2
        time: 0.6666667
        value: 259
        inSlope: 414.5454
        outSlope: 414.5454
        tangentMode: 0
      - serializedVersion: 2
        time: 1.016667
        value: 481
        inSlope: 0
        outSlope: 0
        tangentMode: 0
      m_PreInfinity: 2
      m_PostInfinity: 2
      m_RotationOrder: 4
    attribute: m_AnchoredPosition.y
    path: 
    classID: 224
    script: {fileID: 0}
  - curve:
      serializedVersion: 2
      m_Curve:
      - serializedVersion: 2
        time: 0
        value: 224
        inSlope: 0
        outSlope: 0
        tangentMode: 0
      - serializedVersion: 2
        time: 0.06666667
        value: 224
        inSlope: 0
        outSlope: 0
        tangentMode: 0
      - serializedVersion: 2
        time: 0.3166667
        value: 98
        inSlope: -496.1538
        outSlope: -496.1538
        tangentMode: 0
      - serializedVersion: 2
        time: 0.5
        value: 9
        inSlope: -411
        outSlope: -411
        tangentMode: 0
      - serializedVersion: 2
        time: 0.65
        value: -39
        inSlope: 0
        outSlope: 0
        tangentMode: 0
      - serializedVersion: 2
        time: 0.6666667
        value: -39
        inSlope: 0
        outSlope: 0
        tangentMode: 0
      - serializedVersion: 2
        time: 1.016667
        value: -444
        inSlope: 0
        outSlope: 0
        tangentMode: 0
      m_PreInfinity: 2
      m_PostInfinity: 2
      m_RotationOrder: 4
    attribute: m_AnchoredPosition.x
    path: 
    classID: 224
    script: {fileID: 0}
  m_Events:
